{
  "code": 200,
  "message": "success",
  "timestamp": "2019-06-28 15:35:33",
  "request": {
    "key": "332",
    "limit": "12",
    "page": "3",
    "sort": "104",
    "bought": "1"
  },
  "info": {
    "count": 12,
    "total": 36,
    "next_offset": 12,
    "now_page": 3,
    "max_page": 3,
    "next_page": null
  },
  "copyright": "(C)テレビ朝日",
  "data": [
    {
      "EPISODE_ID": "15826",
      "ARTICLE_ID": "15027",
      "EPISODE_NAME": "＃105 ファンクラブイベント『東京女子流と大運動会』密着！＆未夢・芽生が空中ヨガで空を飛ぶ！？",
      "EPISODE_NUM": "118",
      "EPISODE_CODE": "15826",
      "PLAY_TIME": "29",
      "PRICE": "15",
      "VIEW_NOLIMIT": "0",
      "VIEW_TERM": "7",
      "CAPTION": "　3\/20に行われた東京女子流ファンクラブイベント『Astalight*の春休み2016 ～東京女子流と大運動会～ in箱根』の様子を密着レポート！久しぶりの運動会にメンバー・アスタライト共にかなりの本気モード。各メンバーごとにチームに分かれ「玉入れ」「綱引き」「借り物競争」など、競技は超白熱！！ひーちゃんは綱引きで絶叫！？アスタライトと共に、大盛り上がりで競技を楽しむ4人の姿は必見です！\n　さらに、運動会後に小田原で行われたフリーライブの様子も合わせてお届け。初めての小田原でのフリーライブにメンバーも気合十分。多くの観客に見守られる中、運動会の疲れを微塵も感じさせないパフォーマンスで観客を魅了！\n　未夢ソロ企画『オトナLesson』は空中ヨガ後篇！前回より難易度アップした大技に未夢＆芽生が挑戦。逆立ち、空を飛ぶ！？など、大技へのチャレンジに未夢は「怖い」「無理」連発で半泣き状態…。果たして無事オトナ課題をクリアし、大人女子へと近づけるか！？",
      "IS_NEW": "0",
      "COM_SOON": "0",
      "NEAR_END": "0",
      "SALE_END": "0",
      "IS_FREE": "0",
      "MEMBER_ONLY": "0",
      "ON_SALE": "0",
      "PROGRAM_NAME": "女子流♪",
      "DIRECTORY": "tgs",
      "ON_DELIVER": "1",
      "EVENT_ID": null,
      "EVENT_FLAG": null,
      "TAG": "",
      "SORT": "118",
      "SUB_SORT": null,
      "MEDIA_TYPE_ATTENTION": "",
      "DELIVERY_START_DATE": "2016-04-07 18:00:00",
      "DELIVERY_END_DATE": "",
      "SALES_START_TIME": "2099-01-01 00:00:00",
      "SALES_END_TIME": "",
      "PROGRAM_CODE": "332",
      "IMAGE_URL": "\/images\/episode\/15826\/32d498f89a2ac1aad0862a5fda1232f5.jpg",
      "MAIN_IMAGE_URL": "",
      "IMAGE_URL_PC": "\/images\/episode\/15826\/32d498f89a2ac1aad0862a5fda1232f5.jpg",
      "IMAGE_URL_MB": "",
      "HAS_BOUGHT": 1,
      "LIMIT_DATE": "2019\/06\/30 15:35",
      "EXTRA_LARGE_IMAGE_URL": "\/images\/episode\/15826\/extra_large\/32d498f89a2ac1aad0862a5fda1232f5.jpg",
      "LARGE_IMAGE_URL": "\/images\/episode\/15826\/large\/32d498f89a2ac1aad0862a5fda1232f5.jpg",
      "MEDIUM_IMAGE_URL": "\/images\/episode\/15826\/medium\/32d498f89a2ac1aad0862a5fda1232f5.jpg",
      "SMALL_MEDIUM_IMAGE_URL": "\/images\/episode\/15826\/small_medium\/32d498f89a2ac1aad0862a5fda1232f5.jpg",
      "SMALL_IMAGE_URL": "\/images\/episode\/15826\/small\/32d498f89a2ac1aad0862a5fda1232f5.jpg"
    },
    {
      "EPISODE_ID": "15724",
      "ARTICLE_ID": "14940",
      "EPISODE_NAME": "＃104 未夢が「オトナ体験！」ソロ企画スタート＆友梨の主演舞台に密着",
      "EPISODE_NUM": "117",
      "EPISODE_CODE": "15724",
      "PLAY_TIME": "26",
      "PRICE": "15",
      "VIEW_NOLIMIT": "0",
      "VIEW_TERM": "7",
      "CAPTION": "　山邊未夢ソロ企画が始動！！今年20歳を迎える未夢が、様々なオトナ体験に挑戦する『山邊未夢のオトナLesson』。記念すべき初回は、オトナ女子に大人気！NY発祥で話題の空中ヨガに挑戦。「一人じゃ不安…」という未夢のために来てくれためいちゃんと共に、ハンモックを使ったヨガで身体を伸ばしまくる！！慣れない動きや初めての体勢に「こわい」「無理」連呼の未夢だが…。果たして未夢はオトナLessonで大人女子に近づけるのか？\n　さらに、友梨主演舞台『走馬灯株式会社』稽古～本番に密着。友梨にとって2度目の舞台出演にして、初主演。「不安の方が大きかった」と語る友梨だが…初めての主演舞台にかける思いとは。主演としてのプレッシャー、歌やダンスで表現することと演じることの違い…友梨へのインタビューのほか、友梨の“女優としての魅力”とは？演出家や共演者の方々にもお聞きしました。いつもと違う「女優の顔」を見せる友梨の姿は必見！",
      "IS_NEW": "0",
      "COM_SOON": "0",
      "NEAR_END": "0",
      "SALE_END": "0",
      "IS_FREE": "0",
      "MEMBER_ONLY": "0",
      "ON_SALE": "0",
      "PROGRAM_NAME": "女子流♪",
      "DIRECTORY": "tgs",
      "ON_DELIVER": "1",
      "EVENT_ID": null,
      "EVENT_FLAG": null,
      "TAG": "",
      "SORT": "117",
      "SUB_SORT": null,
      "MEDIA_TYPE_ATTENTION": "",
      "DELIVERY_START_DATE": "2016-03-31 18:00:00",
      "DELIVERY_END_DATE": "",
      "SALES_START_TIME": "2099-01-01 00:00:00",
      "SALES_END_TIME": "",
      "PROGRAM_CODE": "332",
      "IMAGE_URL": "\/images\/episode\/15724\/8f860fc4ecb9d22efede7e3c9e636218.jpg",
      "MAIN_IMAGE_URL": "",
      "IMAGE_URL_PC": "\/images\/episode\/15724\/8f860fc4ecb9d22efede7e3c9e636218.jpg",
      "IMAGE_URL_MB": "",
      "HAS_BOUGHT": 1,
      "LIMIT_DATE": "2019\/06\/30 15:35",
      "EXTRA_LARGE_IMAGE_URL": "\/images\/episode\/15724\/extra_large\/8f860fc4ecb9d22efede7e3c9e636218.jpg",
      "LARGE_IMAGE_URL": "\/images\/episode\/15724\/large\/8f860fc4ecb9d22efede7e3c9e636218.jpg",
      "MEDIUM_IMAGE_URL": "\/images\/episode\/15724\/medium\/8f860fc4ecb9d22efede7e3c9e636218.jpg",
      "SMALL_MEDIUM_IMAGE_URL": "\/images\/episode\/15724\/small_medium\/8f860fc4ecb9d22efede7e3c9e636218.jpg",
      "SMALL_IMAGE_URL": "\/images\/episode\/15724\/small\/8f860fc4ecb9d22efede7e3c9e636218.jpg"
    },
    {
      "EPISODE_ID": "15627",
      "ARTICLE_ID": "14852",
      "EPISODE_NAME": "＃103 「REFLECTION」MV撮影で振付に挑戦＆女子流マジックショーで“大きな奇跡”！",
      "EPISODE_NUM": "116",
      "EPISODE_CODE": "15627",
      "PLAY_TIME": "26",
      "PRICE": "15",
      "VIEW_NOLIMIT": "0",
      "VIEW_TERM": "7",
      "CAPTION": "　『REFLECTION』MVメイキング第2弾！今回のMVでは東京女子流にとっても新たな挑戦が。“新たな世界観を作る”というテーマのもと、初めてメンバー自身が振付を考案。パートごとに振り分け、メンバー1人1人が振付に挑戦。歌詞に合わせたり、身体のパーツやフォーメーションを魅せたり…それぞれがこだわって振付けたダンスは一体どんなものに仕上がったのか？思わず監督が「さすが東京女子流」と唸った、完成度の高いパフォーマンスは必見。\n　女子流がパフォーマンス力を学ぶ！マジック企画最終回！メンバーはマジック挑戦から何を学び何を感じたか？それぞれどんな感想を持ったのか。これまで学んだ演技力、誘導力、話術、演出力…すべてを総動員した集大成のマジックに挑戦。プロ並のハイレベルなマジックに、練習するメンバーの表情も真剣そのもの。果たして、メンバー全員の力を合わせ“大きな奇跡”を起こせるか？",
      "IS_NEW": "0",
      "COM_SOON": "0",
      "NEAR_END": "0",
      "SALE_END": "0",
      "IS_FREE": "0",
      "MEMBER_ONLY": "0",
      "ON_SALE": "0",
      "PROGRAM_NAME": "女子流♪",
      "DIRECTORY": "tgs",
      "ON_DELIVER": "1",
      "EVENT_ID": null,
      "EVENT_FLAG": null,
      "TAG": "",
      "SORT": "116",
      "SUB_SORT": null,
      "MEDIA_TYPE_ATTENTION": "",
      "DELIVERY_START_DATE": "2016-03-24 18:00:00",
      "DELIVERY_END_DATE": "",
      "SALES_START_TIME": "2099-01-01 00:00:00",
      "SALES_END_TIME": "",
      "PROGRAM_CODE": "332",
      "IMAGE_URL": "\/images\/episode\/15627\/8f11eee4c0e0fea0256081b5485033e9.jpg",
      "MAIN_IMAGE_URL": "",
      "IMAGE_URL_PC": "\/images\/episode\/15627\/8f11eee4c0e0fea0256081b5485033e9.jpg",
      "IMAGE_URL_MB": "",
      "HAS_BOUGHT": 1,
      "LIMIT_DATE": "2019\/06\/30 15:35",
      "EXTRA_LARGE_IMAGE_URL": "\/images\/episode\/15627\/extra_large\/8f11eee4c0e0fea0256081b5485033e9.jpg",
      "LARGE_IMAGE_URL": "\/images\/episode\/15627\/large\/8f11eee4c0e0fea0256081b5485033e9.jpg",
      "MEDIUM_IMAGE_URL": "\/images\/episode\/15627\/medium\/8f11eee4c0e0fea0256081b5485033e9.jpg",
      "SMALL_MEDIUM_IMAGE_URL": "\/images\/episode\/15627\/small_medium\/8f11eee4c0e0fea0256081b5485033e9.jpg",
      "SMALL_IMAGE_URL": "\/images\/episode\/15627\/small\/8f11eee4c0e0fea0256081b5485033e9.jpg"
    },
    {
      "EPISODE_ID": "15574",
      "ARTICLE_ID": "14818",
      "EPISODE_NAME": "＃102 「REFLECTION」MV撮影メイキング＆女子流マジックショー集大成へ",
      "EPISODE_NUM": "115",
      "EPISODE_CODE": "15574",
      "PLAY_TIME": "26",
      "PRICE": "15",
      "VIEW_NOLIMIT": "0",
      "VIEW_TERM": "7",
      "CAPTION": "先月撮影された『REFLECTION』MV撮影メイキングをイチ早くお届け！4人体制となり、東京女子流にとって新たな挑戦の連続となった楽曲「REFLECTION」。MVは“新たな世界観を作る”をテーマに、赤で統一された空間でダンスショットやリップシーンを撮影。6年目に入り益々進化を遂げる女子流の、圧巻のパフォーマンスは必見です。\n　さらに、どんな思いでMVが制作されているのか？監督の狙いとは？コンセプト打ち合わせの様子～オフショット時のリラックスした表情まで、ここでしか見れないMV制作の様子を徹底密着。また、未夢がMVを語る！「山邊未夢MV原論」も注目！未夢の思う“MV”の意義とは？など、MVに懸ける思いをアツく語ってくれました。\n　パフォーマンス力を学ぶ、マジック企画はついに最終課題へ。メンバーに課されたマジックは…「全員で協力し“大きな奇跡”を起こせ！」というもの。演技力・話術・演出力…など、ここまで学んだ知識の集大成となるマジックは難易度もMAX！練習開始早々「出来ない…」と弱音を吐くメンバーも。果たして、無事に最終課題クリアなるか？",
      "IS_NEW": "0",
      "COM_SOON": "0",
      "NEAR_END": "0",
      "SALE_END": "0",
      "IS_FREE": "0",
      "MEMBER_ONLY": "0",
      "ON_SALE": "0",
      "PROGRAM_NAME": "女子流♪",
      "DIRECTORY": "tgs",
      "ON_DELIVER": "1",
      "EVENT_ID": null,
      "EVENT_FLAG": null,
      "TAG": "",
      "SORT": "115",
      "SUB_SORT": null,
      "MEDIA_TYPE_ATTENTION": "",
      "DELIVERY_START_DATE": "2016-03-17 18:00:00",
      "DELIVERY_END_DATE": "",
      "SALES_START_TIME": "2099-01-01 00:00:00",
      "SALES_END_TIME": "",
      "PROGRAM_CODE": "332",
      "IMAGE_URL": "\/images\/episode\/15574\/f97629221de55ec9e621f8516afa846a.jpg",
      "MAIN_IMAGE_URL": "",
      "IMAGE_URL_PC": "\/images\/episode\/15574\/f97629221de55ec9e621f8516afa846a.jpg",
      "IMAGE_URL_MB": "",
      "HAS_BOUGHT": 1,
      "LIMIT_DATE": "2019\/06\/30 15:35",
      "EXTRA_LARGE_IMAGE_URL": "\/images\/episode\/15574\/extra_large\/f97629221de55ec9e621f8516afa846a.jpg",
      "LARGE_IMAGE_URL": "\/images\/episode\/15574\/large\/f97629221de55ec9e621f8516afa846a.jpg",
      "MEDIUM_IMAGE_URL": "\/images\/episode\/15574\/medium\/f97629221de55ec9e621f8516afa846a.jpg",
      "SMALL_MEDIUM_IMAGE_URL": "\/images\/episode\/15574\/small_medium\/f97629221de55ec9e621f8516afa846a.jpg",
      "SMALL_IMAGE_URL": "\/images\/episode\/15574\/small\/f97629221de55ec9e621f8516afa846a.jpg"
    },
    {
      "EPISODE_ID": "15516",
      "ARTICLE_ID": "14773",
      "EPISODE_NAME": "＃101 『☆Girly Party』密着！ほしがり女子会トーク＆緊張のステージマジック披露！",
      "EPISODE_NUM": "114",
      "EPISODE_CODE": "15516",
      "PLAY_TIME": "27",
      "PRICE": "15",
      "VIEW_NOLIMIT": "0",
      "VIEW_TERM": "7",
      "CAPTION": "　2\/27に渋谷Gladで行われた、歌手の宮脇詩音主催のイベント『☆Girly Party』に密着。“欲しがり”な女子たちに向けた新感覚の複合型イベントに東京女子流が参加。夜の部は女子流も初めての女子限定イベントで、友梨も「女の子に見てもらえるのはうれしい」と気合十分。女の子だけの空間で披露した『純白の約束』など、いつもと少し雰囲気の違うライブの様子をお届けします。ステージ外でも未夢デザインのTシャツを着て詩音さんと『ほしがり女子トーク』！詩音さんが語る女子流の印象は？「今ほしいもの」「男性観」「生まれ変わるなら男？女？」などなど赤裸々な女子会トークは必見！\n　パフォーマンス力を学ぶ！マジック企画は、女子流マジックショータイム！2組に分かれてお題のステージマジックを披露。挑戦するのはタネ明かしができない、プロ用マジック。絶対に失敗できないプレッシャーに緊張を隠せないメンバー。ひとみ＆未夢の「ひとやま」ペアは、ロープを使ったマジックで「新井ちゃん」大活躍？一方、芽生＆友梨の「庄司と中江」ペアはめいちゃんが水を消す！？それぞれプレッシャーに負けず、無事ショー成功なるか？",
      "IS_NEW": "0",
      "COM_SOON": "0",
      "NEAR_END": "0",
      "SALE_END": "0",
      "IS_FREE": "0",
      "MEMBER_ONLY": "0",
      "ON_SALE": "0",
      "PROGRAM_NAME": "女子流♪",
      "DIRECTORY": "tgs",
      "ON_DELIVER": "1",
      "EVENT_ID": null,
      "EVENT_FLAG": null,
      "TAG": "",
      "SORT": "114",
      "SUB_SORT": null,
      "MEDIA_TYPE_ATTENTION": "",
      "DELIVERY_START_DATE": "2016-03-10 18:00:00",
      "DELIVERY_END_DATE": "",
      "SALES_START_TIME": "2099-01-01 00:00:00",
      "SALES_END_TIME": "",
      "PROGRAM_CODE": "332",
      "IMAGE_URL": "\/images\/episode\/15516\/be639e5dc406a224d5c2f029d831c0b6.jpg",
      "MAIN_IMAGE_URL": "",
      "IMAGE_URL_PC": "\/images\/episode\/15516\/be639e5dc406a224d5c2f029d831c0b6.jpg",
      "IMAGE_URL_MB": "",
      "HAS_BOUGHT": 1,
      "LIMIT_DATE": "2019\/06\/30 15:35",
      "EXTRA_LARGE_IMAGE_URL": "\/images\/episode\/15516\/extra_large\/be639e5dc406a224d5c2f029d831c0b6.jpg",
      "LARGE_IMAGE_URL": "\/images\/episode\/15516\/large\/be639e5dc406a224d5c2f029d831c0b6.jpg",
      "MEDIUM_IMAGE_URL": "\/images\/episode\/15516\/medium\/be639e5dc406a224d5c2f029d831c0b6.jpg",
      "SMALL_MEDIUM_IMAGE_URL": "\/images\/episode\/15516\/small_medium\/be639e5dc406a224d5c2f029d831c0b6.jpg",
      "SMALL_IMAGE_URL": "\/images\/episode\/15516\/small\/be639e5dc406a224d5c2f029d831c0b6.jpg"
    },
    {
      "EPISODE_ID": "15466",
      "ARTICLE_ID": "14721",
      "EPISODE_NAME": "＃100 祝！『女子流♪』配信100回達成！＆“新たな挑戦”2月ワンマン完全密着",
      "EPISODE_NUM": "113",
      "EPISODE_CODE": "15466",
      "PLAY_TIME": "26",
      "PRICE": "15",
      "VIEW_NOLIMIT": "0",
      "VIEW_TERM": "7",
      "CAPTION": "　祝『女子流♪』配信100回目！ ＃1配信から約2年。身も心もぐっと成長した東京女子流から、皆様に感謝のメッセージをお届け。番組開始当初はスタッフに注意されてばかりだった？など、思い出トークをお楽しみください。\n　そんな記念すべき100回目は、CLUB TGS『TGS LIVE 2016 -February-』に密着！終演後「こんなにやりきった、達成感のあるLIVEは初めて」と思わず未夢が語った、充実のLIVEの様子をたっぷりお見せします！\n　めいちゃん曰く、女子流にとって「新しい領域への挑戦」だったという今回のCLUB TGS。1部と2部、それぞれ違うテーマで選曲したというこだわりのセットリストや、とにかく近い！！前回よりさらに進化したお立ち台にも注目！休憩時間にはひーちゃんが食レポ？バックヤードのオフショットも盛りだくさん♪\n　「表現力を磨く！マジック企画」。前回パニックになったひーちゃんに一体何が起きていたのか？先生が詳しく解説！そして、次なるマジックは、2人1組でステージマジックに挑戦！未夢＆ひとみ、友梨＆芽生ペアで練習開始も、高難易度かつチームワークが重要なマジックにやっぱり悪戦苦闘！？",
      "IS_NEW": "0",
      "COM_SOON": "0",
      "NEAR_END": "0",
      "SALE_END": "0",
      "IS_FREE": "0",
      "MEMBER_ONLY": "0",
      "ON_SALE": "0",
      "PROGRAM_NAME": "女子流♪",
      "DIRECTORY": "tgs",
      "ON_DELIVER": "1",
      "EVENT_ID": null,
      "EVENT_FLAG": null,
      "TAG": "",
      "SORT": "113",
      "SUB_SORT": null,
      "MEDIA_TYPE_ATTENTION": "",
      "DELIVERY_START_DATE": "2016-03-03 18:00:00",
      "DELIVERY_END_DATE": "",
      "SALES_START_TIME": "2099-01-01 00:00:00",
      "SALES_END_TIME": "",
      "PROGRAM_CODE": "332",
      "IMAGE_URL": "\/images\/episode\/15466\/1d0e62f6c3af304e6fd7217c31413721.jpg",
      "MAIN_IMAGE_URL": "",
      "IMAGE_URL_PC": "\/images\/episode\/15466\/1d0e62f6c3af304e6fd7217c31413721.jpg",
      "IMAGE_URL_MB": "",
      "HAS_BOUGHT": 1,
      "LIMIT_DATE": "2019\/06\/30 15:35",
      "EXTRA_LARGE_IMAGE_URL": "\/images\/episode\/15466\/extra_large\/1d0e62f6c3af304e6fd7217c31413721.jpg",
      "LARGE_IMAGE_URL": "\/images\/episode\/15466\/large\/1d0e62f6c3af304e6fd7217c31413721.jpg",
      "MEDIUM_IMAGE_URL": "\/images\/episode\/15466\/medium\/1d0e62f6c3af304e6fd7217c31413721.jpg",
      "SMALL_MEDIUM_IMAGE_URL": "\/images\/episode\/15466\/small_medium\/1d0e62f6c3af304e6fd7217c31413721.jpg",
      "SMALL_IMAGE_URL": "\/images\/episode\/15466\/small\/1d0e62f6c3af304e6fd7217c31413721.jpg"
    },
    {
      "EPISODE_ID": "15410",
      "ARTICLE_ID": "14661",
      "EPISODE_NAME": "＃99 女子流から冬の音楽ギフト＆女子流マジックショーでトラブル連発！？",
      "EPISODE_NUM": "112",
      "EPISODE_CODE": "15410",
      "PLAY_TIME": "26",
      "PRICE": "15",
      "VIEW_NOLIMIT": "0",
      "VIEW_TERM": "7",
      "CAPTION": "　東京女子流から皆様へ冬の音楽ギフト！この冬、女子流が出演した2つの音楽イベントを密着レポート。\n　1\/30ららぽーと豊洲にて行われた『SeaSide Fes Next '16 ～WINTER～』は、女子流にとって久々のフリーライブ。しかし、この日の最高気温は、なんと5℃！「初めて女子流を見る人にも興味を持ってもらいたい」との思いで、寒空の下でも気合い十分のメンバー。アルバム曲を中心に寒さを微塵も感じさせないパフォーマンスで観客を魅了！\n　さらに、バレンタインデーに代官山UNITで行われた『POP！POP！POP！』も密着。ライブのプレゼントだけでなく、会場のファンにチョコレートのプレゼントも。ライブ前に、せっせとチョコの準備をするメンバーのおすすめのチョコレートやバレンタインの思い出話もお楽しみに！\n　女子流がパフォーマンス力を学ぶ！マジック企画は、めいちゃん＆ひーちゃんのマジックショー！めいちゃんは「ヒマワリと星屑」にちなんだマジックを披露…。しかし、勘のするどい未夢にタネがバレた！？思わぬハプニング発生に、めいちゃん大ピンチ…。そして、ストローを使ったマジックを披露したひーちゃんにもまさかのトラブルが！？トラブル連発のマジックショー、2人のマジックは見事成功できるのか？",
      "IS_NEW": "0",
      "COM_SOON": "0",
      "NEAR_END": "0",
      "SALE_END": "0",
      "IS_FREE": "0",
      "MEMBER_ONLY": "0",
      "ON_SALE": "0",
      "PROGRAM_NAME": "女子流♪",
      "DIRECTORY": "tgs",
      "ON_DELIVER": "1",
      "EVENT_ID": null,
      "EVENT_FLAG": null,
      "TAG": "",
      "SORT": "112",
      "SUB_SORT": null,
      "MEDIA_TYPE_ATTENTION": "",
      "DELIVERY_START_DATE": "2016-02-25 18:00:00",
      "DELIVERY_END_DATE": "",
      "SALES_START_TIME": "2099-01-01 00:00:00",
      "SALES_END_TIME": "",
      "PROGRAM_CODE": "332",
      "IMAGE_URL": "\/images\/episode\/15410\/4c2dc5ae2251db79029785209bb27f32.jpg",
      "MAIN_IMAGE_URL": "",
      "IMAGE_URL_PC": "\/images\/episode\/15410\/4c2dc5ae2251db79029785209bb27f32.jpg",
      "IMAGE_URL_MB": "",
      "HAS_BOUGHT": 1,
      "LIMIT_DATE": "2019\/06\/30 15:35",
      "EXTRA_LARGE_IMAGE_URL": "\/images\/episode\/15410\/extra_large\/4c2dc5ae2251db79029785209bb27f32.jpg",
      "LARGE_IMAGE_URL": "\/images\/episode\/15410\/large\/4c2dc5ae2251db79029785209bb27f32.jpg",
      "MEDIUM_IMAGE_URL": "\/images\/episode\/15410\/medium\/4c2dc5ae2251db79029785209bb27f32.jpg",
      "SMALL_MEDIUM_IMAGE_URL": "\/images\/episode\/15410\/small_medium\/4c2dc5ae2251db79029785209bb27f32.jpg",
      "SMALL_IMAGE_URL": "\/images\/episode\/15410\/small\/4c2dc5ae2251db79029785209bb27f32.jpg"
    },
    {
      "EPISODE_ID": "15345",
      "ARTICLE_ID": "14604",
      "EPISODE_NAME": "＃98 『REFLECTION』レコーディングで涙＆緊張のマジック初披露！",
      "EPISODE_NUM": "111",
      "EPISODE_CODE": "15345",
      "PLAY_TIME": "27",
      "PRICE": "15",
      "VIEW_NOLIMIT": "0",
      "VIEW_TERM": "7",
      "CAPTION": "　最新アルバム『REFLECTION』レコーディングスタジオに潜入！いつもと違う歌い方、声、音程、etc…。メンバーにとって新たな挑戦となった表題曲「REFLECTION」は苦難の連続だった！\n　芽生は“まだ”のフレーズで大苦戦。思うように歌えない悔しさに、思わず涙。お馴染みのトレードマークのピンク髪でレコーディングに挑んだ「ラッパー中江」の女・子・的ラップにも大注目！\n　新しい挑戦の連続となったアルバムはどのように作られていったのか？ここでしか見られない制作密着の様子を徹底的にお見せします。\n　表現力を磨く企画第2弾『マジック』はいよいよ実践編へ！！4人に課せられたマジックは一体どんなものなのか？人生初のマジック披露に、ド緊張の友梨。マジックを始める前からいきなり失敗！？コインマジックで緊張のあまりハプニング続出！？未夢はトランプマジックに挑戦。不安を隠しきれない2人だが…果たして成功なるか！？",
      "IS_NEW": "0",
      "COM_SOON": "0",
      "NEAR_END": "0",
      "SALE_END": "0",
      "IS_FREE": "0",
      "MEMBER_ONLY": "0",
      "ON_SALE": "0",
      "PROGRAM_NAME": "女子流♪",
      "DIRECTORY": "tgs",
      "ON_DELIVER": "1",
      "EVENT_ID": null,
      "EVENT_FLAG": null,
      "TAG": "",
      "SORT": "111",
      "SUB_SORT": null,
      "MEDIA_TYPE_ATTENTION": "",
      "DELIVERY_START_DATE": "2016-02-18 18:00:00",
      "DELIVERY_END_DATE": "",
      "SALES_START_TIME": "2099-01-01 00:00:00",
      "SALES_END_TIME": "",
      "PROGRAM_CODE": "332",
      "IMAGE_URL": "\/images\/episode\/15345\/63104cca29339fa42b106701c7562a38.jpg",
      "MAIN_IMAGE_URL": "",
      "IMAGE_URL_PC": "\/images\/episode\/15345\/63104cca29339fa42b106701c7562a38.jpg",
      "IMAGE_URL_MB": "",
      "HAS_BOUGHT": 1,
      "LIMIT_DATE": "2019\/06\/30 15:35",
      "EXTRA_LARGE_IMAGE_URL": "\/images\/episode\/15345\/extra_large\/63104cca29339fa42b106701c7562a38.jpg",
      "LARGE_IMAGE_URL": "\/images\/episode\/15345\/large\/63104cca29339fa42b106701c7562a38.jpg",
      "MEDIUM_IMAGE_URL": "\/images\/episode\/15345\/medium\/63104cca29339fa42b106701c7562a38.jpg",
      "SMALL_MEDIUM_IMAGE_URL": "\/images\/episode\/15345\/small_medium\/63104cca29339fa42b106701c7562a38.jpg",
      "SMALL_IMAGE_URL": "\/images\/episode\/15345\/small\/63104cca29339fa42b106701c7562a38.jpg"
    },
    {
      "EPISODE_ID": "15295",
      "ARTICLE_ID": "14546",
      "EPISODE_NAME": "＃97 東京女子流 2016年のライブ初めに密着＆マジックに学ぶ“パフォーマンス力”",
      "EPISODE_NUM": "110",
      "EPISODE_CODE": "15295",
      "PLAY_TIME": "29",
      "PRICE": "15",
      "VIEW_NOLIMIT": "0",
      "VIEW_TERM": "7",
      "CAPTION": "　2016年最初のライブとなった『TGS LIVE 2016 -January-』密着第2弾！ライブ当日の一部始終を大公開！\n　メンバーがスタッフと共に掲げた目標『お客さんに一緒に楽しんでもらうこと』。本番前の友梨の気持ちとは。会場を盛り上げた“お立ち台”が生まれた経緯とは？課題にしていた“煽り”や、1部と2部でガラリと変わる衣装など…歌以外の部分にも課題をもって臨み、ファンをガンガンに煽るメンバーの姿は必見！\n　“魅せる”パフォーマンス力向上を目指し東京女子流がマジックに挑戦！双六先生のマジック授業に今回もメンバー絶叫！？マジックに必要な5大要素を学ぶ！先生の解説に「MCの勉強にもなる！」と4人は興味津々にマジック挑戦！しかし、与えられた練習時間はなんと、たったの20分！？「意味が分からない」とパニックの未夢。ひーちゃん以外はマジック初挑戦だが…果たしてどうなる？！",
      "IS_NEW": "0",
      "COM_SOON": "0",
      "NEAR_END": "0",
      "SALE_END": "0",
      "IS_FREE": "0",
      "MEMBER_ONLY": "0",
      "ON_SALE": "0",
      "PROGRAM_NAME": "女子流♪",
      "DIRECTORY": "tgs",
      "ON_DELIVER": "1",
      "EVENT_ID": null,
      "EVENT_FLAG": null,
      "TAG": "",
      "SORT": "110",
      "SUB_SORT": null,
      "MEDIA_TYPE_ATTENTION": "",
      "DELIVERY_START_DATE": "2016-02-11 18:00:00",
      "DELIVERY_END_DATE": "",
      "SALES_START_TIME": "2099-01-01 00:00:00",
      "SALES_END_TIME": "",
      "PROGRAM_CODE": "332",
      "IMAGE_URL": "\/images\/episode\/15295\/2d8333dc8a3da4bd138a30b8d0d66d30.jpg",
      "MAIN_IMAGE_URL": "",
      "IMAGE_URL_PC": "\/images\/episode\/15295\/2d8333dc8a3da4bd138a30b8d0d66d30.jpg",
      "IMAGE_URL_MB": "",
      "HAS_BOUGHT": 1,
      "LIMIT_DATE": "2019\/06\/30 15:35",
      "EXTRA_LARGE_IMAGE_URL": "\/images\/episode\/15295\/extra_large\/2d8333dc8a3da4bd138a30b8d0d66d30.jpg",
      "LARGE_IMAGE_URL": "\/images\/episode\/15295\/large\/2d8333dc8a3da4bd138a30b8d0d66d30.jpg",
      "MEDIUM_IMAGE_URL": "\/images\/episode\/15295\/medium\/2d8333dc8a3da4bd138a30b8d0d66d30.jpg",
      "SMALL_MEDIUM_IMAGE_URL": "\/images\/episode\/15295\/small_medium\/2d8333dc8a3da4bd138a30b8d0d66d30.jpg",
      "SMALL_IMAGE_URL": "\/images\/episode\/15295\/small\/2d8333dc8a3da4bd138a30b8d0d66d30.jpg"
    },
    {
      "EPISODE_ID": "15250",
      "ARTICLE_ID": "14500",
      "EPISODE_NAME": "＃96 2016年女子流始動！ライブリハ密着＆新企画！女子流がマジックに挑戦！",
      "EPISODE_NUM": "109",
      "EPISODE_CODE": "15250",
      "PLAY_TIME": "26",
      "PRICE": "15",
      "VIEW_NOLIMIT": "0",
      "VIEW_TERM": "7",
      "CAPTION": "　東京女子流の2016年ライブはじめとなる『TGS LIVE 2016 -January-』のリハーサルに密着。\n3ヶ月連続で行うライブをCLUBスタイルに決めた理由は？「とにかくお客さんに楽しんでもらうことが第一」と今回課題にしたのが“煽り”。歌やダンスを見せるだけでなく、お客さんに一緒に楽しんでもらうためにはどうすればいいのか？新年最初のライブに向け、気合十分のメンバーの真剣な表情に注目。リハの合間では元旦をどんな風に過ごした？お正月トークなオフショットも♪\n　そして、「パフォーマンス力向上」を目指す新企画が始動！女子流がマジックに挑戦！！ブロードウェイでのステージ経験もあるプロマジシャンから、ステージでの表現力を学びます。コインが貫通？コーラが消える！？先生による驚きのマジックの連続に、大興奮のメンバー！先生から学んだ、未夢の自己紹介も必見？",
      "IS_NEW": "0",
      "COM_SOON": "0",
      "NEAR_END": "0",
      "SALE_END": "0",
      "IS_FREE": "0",
      "MEMBER_ONLY": "0",
      "ON_SALE": "0",
      "PROGRAM_NAME": "女子流♪",
      "DIRECTORY": "tgs",
      "ON_DELIVER": "1",
      "EVENT_ID": null,
      "EVENT_FLAG": null,
      "TAG": "",
      "SORT": "109",
      "SUB_SORT": null,
      "MEDIA_TYPE_ATTENTION": "",
      "DELIVERY_START_DATE": "2016-02-04 18:00:00",
      "DELIVERY_END_DATE": "",
      "SALES_START_TIME": "2099-01-01 00:00:00",
      "SALES_END_TIME": "",
      "PROGRAM_CODE": "332",
      "IMAGE_URL": "\/images\/episode\/15250\/595dd4b4454f487f0d1a9f4c4215df65.jpg",
      "MAIN_IMAGE_URL": "",
      "IMAGE_URL_PC": "\/images\/episode\/15250\/595dd4b4454f487f0d1a9f4c4215df65.jpg",
      "IMAGE_URL_MB": "",
      "HAS_BOUGHT": 1,
      "LIMIT_DATE": "2019\/06\/30 15:35",
      "EXTRA_LARGE_IMAGE_URL": "\/images\/episode\/15250\/extra_large\/595dd4b4454f487f0d1a9f4c4215df65.jpg",
      "LARGE_IMAGE_URL": "\/images\/episode\/15250\/large\/595dd4b4454f487f0d1a9f4c4215df65.jpg",
      "MEDIUM_IMAGE_URL": "\/images\/episode\/15250\/medium\/595dd4b4454f487f0d1a9f4c4215df65.jpg",
      "SMALL_MEDIUM_IMAGE_URL": "\/images\/episode\/15250\/small_medium\/595dd4b4454f487f0d1a9f4c4215df65.jpg",
      "SMALL_IMAGE_URL": "\/images\/episode\/15250\/small\/595dd4b4454f487f0d1a9f4c4215df65.jpg"
    },
    {
      "EPISODE_ID": "15204",
      "ARTICLE_ID": "14453",
      "EPISODE_NAME": "＃95 女子流がファンと一緒に2015を総括＆お年玉をかけた「かるた対決」完結",
      "EPISODE_NUM": "108",
      "EPISODE_CODE": "15204",
      "PLAY_TIME": "27",
      "PRICE": "15",
      "VIEW_NOLIMIT": "0",
      "VIEW_TERM": "7",
      "CAPTION": "　昨年末に行われた『東京女子流ファンクラブイベント』に潜入。「東京女子流の2015年 プレイバックSHOW」のコーナーで、2015年の東京女子流の軌跡を年表で振り返り！女子流♪だけの映像と共に4人の自然体トークをお楽しみください♪ひーちゃんサプライズ誕生日パーティ、ステラボール演出など…今だから話せる裏話も？\n　「2015年を漢字一文字で表す」4人が書初めを披露！東京女子流5周年を迎えた2015年、4人がそれぞれ選んだ漢字とは？？\n　超白熱の新春企画「女子流かるた」はいよいよ完結！残り枚数も少なくなり、ますますヒートアップするメンバー。まだ1枚もラッキーカードを引けないマジ凹みのひーちゃんはお年玉ゲット出来るか？\n　そんな中最終順位が決定。最下位2名に課された罰ゲームは…“二人羽織”！！鼻をかいたりそばを食べたり…現場は爆笑の嵐に？果たして、白熱のかるた対決を制したのは？そして、屈辱の罰ゲームを受けたのは一体誰！？",
      "IS_NEW": "0",
      "COM_SOON": "0",
      "NEAR_END": "0",
      "SALE_END": "0",
      "IS_FREE": "0",
      "MEMBER_ONLY": "0",
      "ON_SALE": "0",
      "PROGRAM_NAME": "女子流♪",
      "DIRECTORY": "tgs",
      "ON_DELIVER": "1",
      "EVENT_ID": null,
      "EVENT_FLAG": null,
      "TAG": "",
      "SORT": "108",
      "SUB_SORT": null,
      "MEDIA_TYPE_ATTENTION": "",
      "DELIVERY_START_DATE": "2016-01-28 18:00:00",
      "DELIVERY_END_DATE": "",
      "SALES_START_TIME": "2099-01-01 00:00:00",
      "SALES_END_TIME": "",
      "PROGRAM_CODE": "332",
      "IMAGE_URL": "\/images\/episode\/15204\/c44311bfc2b799b0fd739126b3bcfdc9.jpg",
      "MAIN_IMAGE_URL": "",
      "IMAGE_URL_PC": "\/images\/episode\/15204\/c44311bfc2b799b0fd739126b3bcfdc9.jpg",
      "IMAGE_URL_MB": "",
      "HAS_BOUGHT": 1,
      "LIMIT_DATE": "2019\/06\/30 15:35",
      "EXTRA_LARGE_IMAGE_URL": "\/images\/episode\/15204\/extra_large\/c44311bfc2b799b0fd739126b3bcfdc9.jpg",
      "LARGE_IMAGE_URL": "\/images\/episode\/15204\/large\/c44311bfc2b799b0fd739126b3bcfdc9.jpg",
      "MEDIUM_IMAGE_URL": "\/images\/episode\/15204\/medium\/c44311bfc2b799b0fd739126b3bcfdc9.jpg",
      "SMALL_MEDIUM_IMAGE_URL": "\/images\/episode\/15204\/small_medium\/c44311bfc2b799b0fd739126b3bcfdc9.jpg",
      "SMALL_IMAGE_URL": "\/images\/episode\/15204\/small\/c44311bfc2b799b0fd739126b3bcfdc9.jpg"
    }
  ]
}