{
  "code": 200,
  "message": "success",
  "timestamp": "2019-06-28 13:54:50",
  "request": {
    "key": "332",
    "limit": "12",
    "page": "1",
    "sort": "104",
    "bought": "1"
  },
  "info": {
    "count": 12,
    "total": 35,
    "next_offset": 12,
    "now_page": 1,
    "max_page": 3,
    "next_page": 2
  },
  "copyright": "(C)テレビ朝日",
  "data": [
    {
      "EPISODE_ID": "27637",
      "ARTICLE_ID": "26230",
      "EPISODE_NAME": "中野サンプラザ公演振り返り！特別生配信",
      "EPISODE_NUM": "142",
      "EPISODE_CODE": "27637",
      "PLAY_TIME": "55",
      "PRICE": "0",
      "VIEW_NOLIMIT": "1",
      "VIEW_TERM": "",
      "CAPTION": "5月に中野サンプラザ公演を終え、デビュー10年目を迎えた東京女子流。\n4人にとっても特別な日となった「10年目のはじまり」公演を振り返り！\nセットリストに込められた意味、スタッフとバトルになった楽曲選びなど…今だから話せる裏話が満載。曲中の衣装チェンジもスタジオで再現！\nそして、10年目の決意を書道で表現！4者4様の決意とは。\n\n配信日：2019年6月17日　生配信\n出演者：東京女子流（山邊未夢・新井ひとみ・中江友梨・庄司芽生）",
      "IS_NEW": "0",
      "COM_SOON": "0",
      "NEAR_END": "0",
      "SALE_END": "0",
      "IS_FREE": "0",
      "MEMBER_ONLY": "0",
      "ON_SALE": "0",
      "PROGRAM_NAME": "女子流♪",
      "DIRECTORY": "tgs",
      "ON_DELIVER": "1",
      "EVENT_ID": null,
      "EVENT_FLAG": null,
      "TAG": "",
      "SORT": "142",
      "SUB_SORT": null,
      "MEDIA_TYPE_ATTENTION": "",
      "DELIVERY_START_DATE": "2019-06-19 18:00:00",
      "DELIVERY_END_DATE": "",
      "SALES_START_TIME": "2099-01-01 00:00:00",
      "SALES_END_TIME": "",
      "PROGRAM_CODE": "332",
      "IMAGE_URL": "\/images\/episode\/27637\/a4230f0775b8d8d252e9e530c7ed883b.jpg",
      "MAIN_IMAGE_URL": "",
      "IMAGE_URL_PC": "\/images\/episode\/27637\/a4230f0775b8d8d252e9e530c7ed883b.jpg",
      "IMAGE_URL_MB": "",
      "HAS_BOUGHT": 1,
      "LIMIT_DATE": "2019\/06\/30 13:54",
      "EXTRA_LARGE_IMAGE_URL": "\/images\/episode\/27637\/extra_large\/a4230f0775b8d8d252e9e530c7ed883b.jpg",
      "LARGE_IMAGE_URL": "\/images\/episode\/27637\/large\/a4230f0775b8d8d252e9e530c7ed883b.jpg",
      "MEDIUM_IMAGE_URL": "\/images\/episode\/27637\/medium\/a4230f0775b8d8d252e9e530c7ed883b.jpg",
      "SMALL_MEDIUM_IMAGE_URL": "\/images\/episode\/27637\/small_medium\/a4230f0775b8d8d252e9e530c7ed883b.jpg",
      "SMALL_IMAGE_URL": "\/images\/episode\/27637\/small\/a4230f0775b8d8d252e9e530c7ed883b.jpg"
    },
    {
      "EPISODE_ID": "27392",
      "ARTICLE_ID": "26012",
      "EPISODE_NAME": "東京女子流10年目突入記念！特別編",
      "EPISODE_NUM": "141",
      "EPISODE_CODE": "27392",
      "PLAY_TIME": "36",
      "PRICE": "0",
      "VIEW_NOLIMIT": "1",
      "VIEW_TERM": "",
      "CAPTION": "祝・東京女子流デビュー10年目突入！\nこの10年の東京女子流について、普段言えない本音をぶっちゃけトーク。\n改めてメンバーに伝えたいこと、転機となった曲・ライブ、色々あった（？）メンバー間の関係性…4人が真剣に語った、今だから話せる本音トークが満載の特別編！",
      "IS_NEW": "0",
      "COM_SOON": "0",
      "NEAR_END": "0",
      "SALE_END": "0",
      "IS_FREE": "0",
      "MEMBER_ONLY": "0",
      "ON_SALE": "0",
      "PROGRAM_NAME": "女子流♪",
      "DIRECTORY": "tgs",
      "ON_DELIVER": "1",
      "EVENT_ID": null,
      "EVENT_FLAG": null,
      "TAG": "",
      "SORT": "141",
      "SUB_SORT": null,
      "MEDIA_TYPE_ATTENTION": "",
      "DELIVERY_START_DATE": "2019-06-12 17:00:00",
      "DELIVERY_END_DATE": "",
      "SALES_START_TIME": "2099-01-01 00:00:00",
      "SALES_END_TIME": "",
      "PROGRAM_CODE": "332",
      "IMAGE_URL": "\/images\/episode\/27392\/4904ff15314767599026fb9d73275973.jpg",
      "MAIN_IMAGE_URL": "",
      "IMAGE_URL_PC": "\/images\/episode\/27392\/4904ff15314767599026fb9d73275973.jpg",
      "IMAGE_URL_MB": "",
      "HAS_BOUGHT": 1,
      "LIMIT_DATE": "2019\/06\/30 13:54",
      "EXTRA_LARGE_IMAGE_URL": "\/images\/episode\/27392\/extra_large\/4904ff15314767599026fb9d73275973.jpg",
      "LARGE_IMAGE_URL": "\/images\/episode\/27392\/large\/4904ff15314767599026fb9d73275973.jpg",
      "MEDIUM_IMAGE_URL": "\/images\/episode\/27392\/medium\/4904ff15314767599026fb9d73275973.jpg",
      "SMALL_MEDIUM_IMAGE_URL": "\/images\/episode\/27392\/small_medium\/4904ff15314767599026fb9d73275973.jpg",
      "SMALL_IMAGE_URL": "\/images\/episode\/27392\/small\/4904ff15314767599026fb9d73275973.jpg"
    },
    {
      "EPISODE_ID": "27391",
      "ARTICLE_ID": "26011",
      "EPISODE_NAME": "中野サンプラザ公演「10年目のはじまり」直前！特別生配信",
      "EPISODE_NUM": "140",
      "EPISODE_CODE": "27391",
      "PLAY_TIME": "52",
      "PRICE": "0",
      "VIEW_NOLIMIT": "1",
      "VIEW_TERM": "",
      "CAPTION": "2019年5月20日 中野サンプラザ公演直前！特別生配信\n出演者：東京女子流（山邊未夢・新井ひとみ・中江友梨・庄司芽生）",
      "IS_NEW": "0",
      "COM_SOON": "0",
      "NEAR_END": "0",
      "SALE_END": "0",
      "IS_FREE": "0",
      "MEMBER_ONLY": "0",
      "ON_SALE": "0",
      "PROGRAM_NAME": "女子流♪",
      "DIRECTORY": "tgs",
      "ON_DELIVER": "1",
      "EVENT_ID": null,
      "EVENT_FLAG": null,
      "TAG": "",
      "SORT": "140",
      "SUB_SORT": null,
      "MEDIA_TYPE_ATTENTION": "",
      "DELIVERY_START_DATE": "2019-05-23 12:00:00",
      "DELIVERY_END_DATE": "",
      "SALES_START_TIME": "2099-01-01 00:00:00",
      "SALES_END_TIME": "",
      "PROGRAM_CODE": "332",
      "IMAGE_URL": "\/images\/episode\/27391\/f352423eb52aea676342603c4b43185d.jpg",
      "MAIN_IMAGE_URL": "",
      "IMAGE_URL_PC": "\/images\/episode\/27391\/f352423eb52aea676342603c4b43185d.jpg",
      "IMAGE_URL_MB": "",
      "HAS_BOUGHT": 1,
      "LIMIT_DATE": "2019\/06\/30 13:54",
      "EXTRA_LARGE_IMAGE_URL": "\/images\/episode\/27391\/extra_large\/f352423eb52aea676342603c4b43185d.jpg",
      "LARGE_IMAGE_URL": "\/images\/episode\/27391\/large\/f352423eb52aea676342603c4b43185d.jpg",
      "MEDIUM_IMAGE_URL": "\/images\/episode\/27391\/medium\/f352423eb52aea676342603c4b43185d.jpg",
      "SMALL_MEDIUM_IMAGE_URL": "\/images\/episode\/27391\/small_medium\/f352423eb52aea676342603c4b43185d.jpg",
      "SMALL_IMAGE_URL": "\/images\/episode\/27391\/small\/f352423eb52aea676342603c4b43185d.jpg"
    },
    {
      "EPISODE_ID": "17328",
      "ARTICLE_ID": "16498",
      "EPISODE_NAME": "＃126 「女子流fortune」2年ぶりの手相占い！“これからの東京女子流”とは。",
      "EPISODE_NUM": "139",
      "EPISODE_CODE": "17328",
      "PLAY_TIME": "34",
      "PRICE": "15",
      "VIEW_NOLIMIT": "0",
      "VIEW_TERM": "7",
      "CAPTION": "　『女子流fortune』約2年ぶりに島田秀平さんが登場！年齢や生活で変わっていくという手相。2014年と比べて東京女子流はどう変化したか？驚きの結果にメンバー大興奮！前回「ムッツリスケベ」と判定されためいちゃんのエロ線は、果たして変わっているのか…？そして、グループとしての“東京女子流の未来”とは。4人が「東京女子流の夢」をスタジオで叫ぶ！\n　『女子流♪』が始まって約2年半。改めて、メンバーにとって番組の存在とは？正直な思いをインタビュー。さらに、約2年半分の映像と共にラスト交換日記をお届けします。",
      "IS_NEW": "0",
      "COM_SOON": "0",
      "NEAR_END": "0",
      "SALE_END": "0",
      "IS_FREE": "0",
      "MEMBER_ONLY": "0",
      "ON_SALE": "0",
      "PROGRAM_NAME": "女子流♪",
      "DIRECTORY": "tgs",
      "ON_DELIVER": "1",
      "EVENT_ID": null,
      "EVENT_FLAG": null,
      "TAG": "",
      "SORT": "139",
      "SUB_SORT": null,
      "MEDIA_TYPE_ATTENTION": "",
      "DELIVERY_START_DATE": "2016-09-30 18:00:00",
      "DELIVERY_END_DATE": "",
      "SALES_START_TIME": "2099-01-01 00:00:00",
      "SALES_END_TIME": "",
      "PROGRAM_CODE": "332",
      "IMAGE_URL": "\/images\/episode\/17328\/23107418ee5e7ded631403c027a2a119.jpg",
      "MAIN_IMAGE_URL": "",
      "IMAGE_URL_PC": "\/images\/episode\/17328\/23107418ee5e7ded631403c027a2a119.jpg",
      "IMAGE_URL_MB": "",
      "HAS_BOUGHT": 1,
      "LIMIT_DATE": "2019\/06\/30 13:54",
      "EXTRA_LARGE_IMAGE_URL": "\/images\/episode\/17328\/extra_large\/23107418ee5e7ded631403c027a2a119.jpg",
      "LARGE_IMAGE_URL": "\/images\/episode\/17328\/large\/23107418ee5e7ded631403c027a2a119.jpg",
      "MEDIUM_IMAGE_URL": "\/images\/episode\/17328\/medium\/23107418ee5e7ded631403c027a2a119.jpg",
      "SMALL_MEDIUM_IMAGE_URL": "\/images\/episode\/17328\/small_medium\/23107418ee5e7ded631403c027a2a119.jpg",
      "SMALL_IMAGE_URL": "\/images\/episode\/17328\/small\/23107418ee5e7ded631403c027a2a119.jpg"
    },
    {
      "EPISODE_ID": "17325",
      "ARTICLE_ID": "16495",
      "EPISODE_NAME": "＃125 涙の女子流会議『東京女子流の未来とは？』＆「志田サマー新井サマー」ライブ密着！女子流が新曲『深海』披露！",
      "EPISODE_NUM": "138",
      "EPISODE_CODE": "17325",
      "PLAY_TIME": "35",
      "PRICE": "15",
      "VIEW_NOLIMIT": "0",
      "VIEW_TERM": "7",
      "CAPTION": "　東京女子流が4人だけの空間で、本音で“これから”を語り合う『女子流会議』。最終回となる今回は『女子流の未来』を徹底討論。女子流はこれから、何を目標にどう頑張っていけばいいか？4人一致で掲げた目標は“もう一度、武道館に立つ”こと。「あの時期があったから今がある」「天狗になっていたかもしれない」など、本音トークのぶつかり合いに思わず涙するメンバーも…。\n　さらに2016夏限定ユニット「志田サマー新井サマー」のライブ、『SUMMER PARTY!!～RED NIGHT～』『LAST LIVE2016～あの日見たサマーを僕達は忘れない～』にそれぞれ密着！9\/17に行われた「LAST LIVE」では、ゲストとして東京女子流と夢みるアドレセンスが登場。女子流は新曲『深海』を熱唱！MCでは、志田サマー新井サマーがステージ上でラーメン二郎を食す！？\n　街ぶらポスター貼り対決はついに決着！今度はめいちゃん＆友梨チームの前にも銀ちゃんが登場。銀ちゃんの出題するクイズに挑戦するが…なぜか銀ちゃんが大激怒！？激闘の末、勝利をつかんだのはどちらのチームなのか。そして、敗者に待ち受ける過酷な罰ゲームとは…。",
      "IS_NEW": "0",
      "COM_SOON": "0",
      "NEAR_END": "0",
      "SALE_END": "0",
      "IS_FREE": "0",
      "MEMBER_ONLY": "0",
      "ON_SALE": "0",
      "PROGRAM_NAME": "女子流♪",
      "DIRECTORY": "tgs",
      "ON_DELIVER": "1",
      "EVENT_ID": null,
      "EVENT_FLAG": null,
      "TAG": "",
      "SORT": "138",
      "SUB_SORT": null,
      "MEDIA_TYPE_ATTENTION": "",
      "DELIVERY_START_DATE": "2016-09-29 18:00:00",
      "DELIVERY_END_DATE": "",
      "SALES_START_TIME": "2099-01-01 00:00:00",
      "SALES_END_TIME": "",
      "PROGRAM_CODE": "332",
      "IMAGE_URL": "\/images\/episode\/17325\/a421548f5ddc15570da64215a42e9df9.jpg",
      "MAIN_IMAGE_URL": "",
      "IMAGE_URL_PC": "\/images\/episode\/17325\/a421548f5ddc15570da64215a42e9df9.jpg",
      "IMAGE_URL_MB": "",
      "HAS_BOUGHT": 1,
      "LIMIT_DATE": "2019\/06\/30 13:54",
      "EXTRA_LARGE_IMAGE_URL": "\/images\/episode\/17325\/extra_large\/a421548f5ddc15570da64215a42e9df9.jpg",
      "LARGE_IMAGE_URL": "\/images\/episode\/17325\/large\/a421548f5ddc15570da64215a42e9df9.jpg",
      "MEDIUM_IMAGE_URL": "\/images\/episode\/17325\/medium\/a421548f5ddc15570da64215a42e9df9.jpg",
      "SMALL_MEDIUM_IMAGE_URL": "\/images\/episode\/17325\/small_medium\/a421548f5ddc15570da64215a42e9df9.jpg",
      "SMALL_IMAGE_URL": "\/images\/episode\/17325\/small\/a421548f5ddc15570da64215a42e9df9.jpg"
    },
    {
      "EPISODE_ID": "17315",
      "ARTICLE_ID": "16484",
      "EPISODE_NAME": "＃124 全国じゃんけん大会「和歌山女子流」新コールが誕生！？＆ひーちゃん・未夢が商店街で接客初挑戦！",
      "EPISODE_NUM": "137",
      "EPISODE_CODE": "17315",
      "PLAY_TIME": "33",
      "PRICE": "15",
      "VIEW_NOLIMIT": "0",
      "VIEW_TERM": "7",
      "CAPTION": "　3度目の開催となった『47都道府県（+台北） 東京女子流 全国じゃんけん大会』。戦いを制し、見事ライブ開催権を勝ち取った和歌山県に初上陸！「女子流のライブは初めて」という方のために、何か特別なことが出来ないか…と生まれたのが、“方言でのコール＆レスポンス”。女子流と会場が一体となった、大盛り上がりの様子は必見！もちろん新曲『深海』も披露！2Ver.のパフォーマンスをお楽しみ下さい♪\n　街ぶら企画では、ポスター貼り対決が大白熱！順調にお店に交渉を続けるひとみ＆未夢チームの前に、戸越銀座のアイドル銀ちゃんが登場。クイズに正解すれば、銀ちゃんがポスター貼りを手伝ってくれるというが…？さらに、続いて訪れたからあげ屋さんでは何故かお店のお手伝いをすることに。人生で初めての接客＆キッチンでの調理に挑戦するが…果たして無事お客さんに商品を届けられるか！？",
      "IS_NEW": "0",
      "COM_SOON": "0",
      "NEAR_END": "0",
      "SALE_END": "0",
      "IS_FREE": "0",
      "MEMBER_ONLY": "0",
      "ON_SALE": "0",
      "PROGRAM_NAME": "女子流♪",
      "DIRECTORY": "tgs",
      "ON_DELIVER": "1",
      "EVENT_ID": null,
      "EVENT_FLAG": null,
      "TAG": "",
      "SORT": "137",
      "SUB_SORT": null,
      "MEDIA_TYPE_ATTENTION": "",
      "DELIVERY_START_DATE": "2016-09-22 18:00:00",
      "DELIVERY_END_DATE": "",
      "SALES_START_TIME": "2099-01-01 00:00:00",
      "SALES_END_TIME": "",
      "PROGRAM_CODE": "332",
      "IMAGE_URL": "\/images\/episode\/17315\/db30a5c5f25e74cd026fe122c846bc80.jpg",
      "MAIN_IMAGE_URL": "",
      "IMAGE_URL_PC": "\/images\/episode\/17315\/db30a5c5f25e74cd026fe122c846bc80.jpg",
      "IMAGE_URL_MB": "",
      "HAS_BOUGHT": 1,
      "LIMIT_DATE": "2019\/06\/30 13:54",
      "EXTRA_LARGE_IMAGE_URL": "\/images\/episode\/17315\/extra_large\/db30a5c5f25e74cd026fe122c846bc80.jpg",
      "LARGE_IMAGE_URL": "\/images\/episode\/17315\/large\/db30a5c5f25e74cd026fe122c846bc80.jpg",
      "MEDIUM_IMAGE_URL": "\/images\/episode\/17315\/medium\/db30a5c5f25e74cd026fe122c846bc80.jpg",
      "SMALL_MEDIUM_IMAGE_URL": "\/images\/episode\/17315\/small_medium\/db30a5c5f25e74cd026fe122c846bc80.jpg",
      "SMALL_IMAGE_URL": "\/images\/episode\/17315\/small\/db30a5c5f25e74cd026fe122c846bc80.jpg"
    },
    {
      "EPISODE_ID": "17247",
      "ARTICLE_ID": "16419",
      "EPISODE_NAME": "＃123 『深海』リリイベ4days密着＆街ぶらポスター貼り対決スタート！",
      "EPISODE_NUM": "136",
      "EPISODE_CODE": "17247",
      "PLAY_TIME": "28",
      "PRICE": "15",
      "VIEW_NOLIMIT": "0",
      "VIEW_TERM": "7",
      "CAPTION": "　9月1～4日に行われた『深海』リリースイベントの様子をお届け！トークイベント、ミニライブ、ラジオ…4人で再出発後初となるシングルを披露した、怒涛の4日間を追いかけました。9\/2の豊洲ではお客さんの前で初パフォーマンス！「曲の最初の印象を決められちゃうから、新曲披露はいつでも緊張する」と語る友梨を筆頭に、本番前から緊張を隠しきれないメンバーだったが…ステージ裏での緊張した様子とは裏腹に、本番で見せた圧巻のパフォーマンスは必見！そしてニコニコ本社でのミニライブでは、まさかのトラブルが！？\n　商店街街ぶら企画では、2チームに分かれポスター貼り対決がスタート！お店と交渉し、女子流のポスターをより多く貼ってもらえた方が勝利となるが…未夢＆ひーちゃんチームは魚屋の威勢のいいおばさんを前に、なぜか新曲を熱唱！？一方めいちゃん＆友梨チームはハイテンションなアイルランド人店長に乗せられ、お店の商品を食レポすることに。果たして勝負の行方は…？",
      "IS_NEW": "0",
      "COM_SOON": "0",
      "NEAR_END": "0",
      "SALE_END": "0",
      "IS_FREE": "0",
      "MEMBER_ONLY": "0",
      "ON_SALE": "0",
      "PROGRAM_NAME": "女子流♪",
      "DIRECTORY": "tgs",
      "ON_DELIVER": "1",
      "EVENT_ID": null,
      "EVENT_FLAG": null,
      "TAG": "",
      "SORT": "136",
      "SUB_SORT": null,
      "MEDIA_TYPE_ATTENTION": "",
      "DELIVERY_START_DATE": "2016-09-15 18:00:00",
      "DELIVERY_END_DATE": "",
      "SALES_START_TIME": "2099-01-01 00:00:00",
      "SALES_END_TIME": "",
      "PROGRAM_CODE": "332",
      "IMAGE_URL": "\/images\/episode\/17247\/30d26980d191411e8f42abc5de8851a4.jpg",
      "MAIN_IMAGE_URL": "",
      "IMAGE_URL_PC": "\/images\/episode\/17247\/30d26980d191411e8f42abc5de8851a4.jpg",
      "IMAGE_URL_MB": "",
      "HAS_BOUGHT": 1,
      "LIMIT_DATE": "2019\/06\/30 13:54",
      "EXTRA_LARGE_IMAGE_URL": "\/images\/episode\/17247\/extra_large\/30d26980d191411e8f42abc5de8851a4.jpg",
      "LARGE_IMAGE_URL": "\/images\/episode\/17247\/large\/30d26980d191411e8f42abc5de8851a4.jpg",
      "MEDIUM_IMAGE_URL": "\/images\/episode\/17247\/medium\/30d26980d191411e8f42abc5de8851a4.jpg",
      "SMALL_MEDIUM_IMAGE_URL": "\/images\/episode\/17247\/small_medium\/30d26980d191411e8f42abc5de8851a4.jpg",
      "SMALL_IMAGE_URL": "\/images\/episode\/17247\/small\/30d26980d191411e8f42abc5de8851a4.jpg"
    },
    {
      "EPISODE_ID": "17206",
      "ARTICLE_ID": "16375",
      "EPISODE_NAME": "＃122 『深海』MVドラマパート撮影に密着＆未夢・芽生が殺陣で本格アクションに挑戦！",
      "EPISODE_NUM": "135",
      "EPISODE_CODE": "17206",
      "PLAY_TIME": "26",
      "PRICE": "15",
      "VIEW_NOLIMIT": "0",
      "VIEW_TERM": "7",
      "CAPTION": "　『深海』MV撮影リポート第2弾！今回も8\/3に阿佐ヶ谷で行われた『深海 スペシャルトークイベント』と合わせて、MV撮影現場の様子をお届け。楽曲で描く世界観をショートドラマで表現したという今回のMV。楽曲に込められた物語とは？ドラマに出演頂いた西田有沙さん、狩野健斗さんへ楽曲の印象やドラマの撮影秘話をインタビュー。女子流による撮影裏話も！\n　未夢ソロ企画『オトナlesson』は殺陣レッスン後篇。刀の使い方にもだんだん慣れてきた未夢＆芽生が、いよいよ最終オトナ課題“立ち回り”に挑戦！時代劇のような本格アクションを、練習時間わずか15分で覚えることに。振りの多さと斬られ役とのタイミング合わせに大苦戦する2人だが…。終了後「ライブより緊張した！」という未夢＆芽生の、見事な本格アクションは必見！",
      "IS_NEW": "0",
      "COM_SOON": "0",
      "NEAR_END": "0",
      "SALE_END": "0",
      "IS_FREE": "0",
      "MEMBER_ONLY": "0",
      "ON_SALE": "0",
      "PROGRAM_NAME": "女子流♪",
      "DIRECTORY": "tgs",
      "ON_DELIVER": "1",
      "EVENT_ID": null,
      "EVENT_FLAG": null,
      "TAG": "",
      "SORT": "135",
      "SUB_SORT": null,
      "MEDIA_TYPE_ATTENTION": "",
      "DELIVERY_START_DATE": "2016-09-08 18:00:00",
      "DELIVERY_END_DATE": "",
      "SALES_START_TIME": "2099-01-01 00:00:00",
      "SALES_END_TIME": "",
      "PROGRAM_CODE": "332",
      "IMAGE_URL": "\/images\/episode\/17206\/8a8d4f2c3c9c1a940e469636cde6b0e3.jpg",
      "MAIN_IMAGE_URL": "",
      "IMAGE_URL_PC": "\/images\/episode\/17206\/8a8d4f2c3c9c1a940e469636cde6b0e3.jpg",
      "IMAGE_URL_MB": "",
      "HAS_BOUGHT": 1,
      "LIMIT_DATE": "2019\/06\/30 13:54",
      "EXTRA_LARGE_IMAGE_URL": "\/images\/episode\/17206\/extra_large\/8a8d4f2c3c9c1a940e469636cde6b0e3.jpg",
      "LARGE_IMAGE_URL": "\/images\/episode\/17206\/large\/8a8d4f2c3c9c1a940e469636cde6b0e3.jpg",
      "MEDIUM_IMAGE_URL": "\/images\/episode\/17206\/medium\/8a8d4f2c3c9c1a940e469636cde6b0e3.jpg",
      "SMALL_MEDIUM_IMAGE_URL": "\/images\/episode\/17206\/small_medium\/8a8d4f2c3c9c1a940e469636cde6b0e3.jpg",
      "SMALL_IMAGE_URL": "\/images\/episode\/17206\/small\/8a8d4f2c3c9c1a940e469636cde6b0e3.jpg"
    },
    {
      "EPISODE_ID": "17169",
      "ARTICLE_ID": "16343",
      "EPISODE_NAME": "＃121 ももクロと久々の再会！テレ朝夏祭り裏側密着＆未夢・芽生が初めての殺陣に挑戦！",
      "EPISODE_NUM": "134",
      "EPISODE_CODE": "17169",
      "PLAY_TIME": "26",
      "PRICE": "15",
      "VIEW_NOLIMIT": "0",
      "VIEW_TERM": "7",
      "CAPTION": "　7\/25に行われた「テレビ朝日・六本木ヒルズ夏祭り」で開催された『川上アキラの人のふんどしでひとりふんどし』公開収録リポートをお届け。シークレットゲストとして参加した東京女子流は、ステージでももいろクローバーZと久しぶりの再会。かつては2マンライブなどで共演経験もあるももクロとの再会を前に、登場時の心境は？など裏側に密着！めいちゃんの相方・GETTAMANが大暴走のエクササイズも必見！\n　久々の未夢ソロ企画『山邊未夢のオトナLesson』では、強く美しいオトナ女子を目指すため“殺陣”に初挑戦！スペシャルゲストのめいちゃんと共に、美しい所作・姿勢を身につけるべくレッスンスタート！袴に着替え、まずは刀の使い方から学ぶが…慣れない動作に大苦戦。果たして2人は殺陣をマスターし、オトナ女子に近づけるか？",
      "IS_NEW": "0",
      "COM_SOON": "0",
      "NEAR_END": "0",
      "SALE_END": "0",
      "IS_FREE": "0",
      "MEMBER_ONLY": "0",
      "ON_SALE": "0",
      "PROGRAM_NAME": "女子流♪",
      "DIRECTORY": "tgs",
      "ON_DELIVER": "1",
      "EVENT_ID": null,
      "EVENT_FLAG": null,
      "TAG": "",
      "SORT": "134",
      "SUB_SORT": null,
      "MEDIA_TYPE_ATTENTION": "",
      "DELIVERY_START_DATE": "2016-09-01 18:00:00",
      "DELIVERY_END_DATE": "",
      "SALES_START_TIME": "2099-01-01 00:00:00",
      "SALES_END_TIME": "",
      "PROGRAM_CODE": "332",
      "IMAGE_URL": "\/images\/episode\/17169\/609d7b8ddd174b32f23a7a3f7e016db5.jpg",
      "MAIN_IMAGE_URL": "",
      "IMAGE_URL_PC": "\/images\/episode\/17169\/609d7b8ddd174b32f23a7a3f7e016db5.jpg",
      "IMAGE_URL_MB": "",
      "HAS_BOUGHT": 1,
      "LIMIT_DATE": "2019\/06\/30 13:54",
      "EXTRA_LARGE_IMAGE_URL": "\/images\/episode\/17169\/extra_large\/609d7b8ddd174b32f23a7a3f7e016db5.jpg",
      "LARGE_IMAGE_URL": "\/images\/episode\/17169\/large\/609d7b8ddd174b32f23a7a3f7e016db5.jpg",
      "MEDIUM_IMAGE_URL": "\/images\/episode\/17169\/medium\/609d7b8ddd174b32f23a7a3f7e016db5.jpg",
      "SMALL_MEDIUM_IMAGE_URL": "\/images\/episode\/17169\/small_medium\/609d7b8ddd174b32f23a7a3f7e016db5.jpg",
      "SMALL_IMAGE_URL": "\/images\/episode\/17169\/small\/609d7b8ddd174b32f23a7a3f7e016db5.jpg"
    },
    {
      "EPISODE_ID": "17086",
      "ARTICLE_ID": "16263",
      "EPISODE_NAME": "＃120 『深海』MV撮影リポート！＆アルピーからダメ出し！街ぶらロケの極意とは？",
      "EPISODE_NUM": "133",
      "EPISODE_CODE": "17086",
      "PLAY_TIME": "26",
      "PRICE": "15",
      "VIEW_NOLIMIT": "0",
      "VIEW_TERM": "7",
      "CAPTION": "　7月末に行われた『深海』MV撮影のダンスパートに密着。めいちゃんも「今までやったことのない新しい挑戦」と語った今回のダンス。その振付レッスンの様子～8\/3に阿佐ヶ谷で行われた『深海　スペシャルトークイベント』の様子も合わせてお届け！今回のダンスでは全員が苦戦したという“ステップ”。その意図は？振付の先生にコンセプトをインタビュー。さらに、トークイベントでは友梨が“ダンス”をアツく語る！\n　街ぶら企画では、自由すぎる女子流の元へついにアルピーが動く！この企画の本当の趣旨は女子流へのご褒美企画…ではなく“街ぶらスキルを身につける”こと。お店への入り方～コロッケの食べ方まで、アルピーが街ぶらの極意を熱血指導！アルピーからの徹底ダメ出しに、女子流の反応は…？",
      "IS_NEW": "0",
      "COM_SOON": "0",
      "NEAR_END": "0",
      "SALE_END": "0",
      "IS_FREE": "0",
      "MEMBER_ONLY": "0",
      "ON_SALE": "0",
      "PROGRAM_NAME": "女子流♪",
      "DIRECTORY": "tgs",
      "ON_DELIVER": "1",
      "EVENT_ID": null,
      "EVENT_FLAG": null,
      "TAG": "",
      "SORT": "133",
      "SUB_SORT": null,
      "MEDIA_TYPE_ATTENTION": "",
      "DELIVERY_START_DATE": "2016-09-01 18:00:00",
      "DELIVERY_END_DATE": "",
      "SALES_START_TIME": "2099-01-01 00:00:00",
      "SALES_END_TIME": "",
      "PROGRAM_CODE": "332",
      "IMAGE_URL": "\/images\/episode\/17086\/c17d7d93d3a25222b8a01c7388f3b60c.jpg",
      "MAIN_IMAGE_URL": "",
      "IMAGE_URL_PC": "\/images\/episode\/17086\/c17d7d93d3a25222b8a01c7388f3b60c.jpg",
      "IMAGE_URL_MB": "",
      "HAS_BOUGHT": 1,
      "LIMIT_DATE": "2019\/06\/30 13:54",
      "EXTRA_LARGE_IMAGE_URL": "\/images\/episode\/17086\/extra_large\/c17d7d93d3a25222b8a01c7388f3b60c.jpg",
      "LARGE_IMAGE_URL": "\/images\/episode\/17086\/large\/c17d7d93d3a25222b8a01c7388f3b60c.jpg",
      "MEDIUM_IMAGE_URL": "\/images\/episode\/17086\/medium\/c17d7d93d3a25222b8a01c7388f3b60c.jpg",
      "SMALL_MEDIUM_IMAGE_URL": "\/images\/episode\/17086\/small_medium\/c17d7d93d3a25222b8a01c7388f3b60c.jpg",
      "SMALL_IMAGE_URL": "\/images\/episode\/17086\/small\/c17d7d93d3a25222b8a01c7388f3b60c.jpg"
    },
    {
      "EPISODE_ID": "17085",
      "ARTICLE_ID": "16262",
      "EPISODE_NAME": "＃119 『深海』ジャケット撮影メイキング＆「街ぶらドッキリ企画」ついにネタばらし！",
      "EPISODE_NUM": "132",
      "EPISODE_CODE": "17085",
      "PLAY_TIME": "26",
      "PRICE": "15",
      "VIEW_NOLIMIT": "0",
      "VIEW_TERM": "7",
      "CAPTION": "　8\/31に発売される、東京女子流20枚目のシングル『深海』のジャケット写真撮影に密着！メインビジュアルは未夢の地元・千葉の海岸で撮影。夏らしい水着風の衣装で、砂浜で寝そべったり水をかけあったり…。夜には花火で遊ぶ姿も撮影！友梨も「今年初の花火」と大はしゃぎ。女子流の素顔が詰まった撮影の様子をお楽しみください。\n　「女子流さんぽ」企画では、初の街ぶらロケにはしゃぐメンバー。しかしこの企画、実は女子流のロケ力向上のためのドッキリ企画。ロケを行う女子流の様子を、陰からアルコ＆ピースがスパルタダメ出ししていた！そんなこととは露知らず、食べ歩きやゆるキャラとのふれあいを楽しむ女子流だが…そしてついにアルピーが女子流を襲撃！果たしてメンバーの反応は！？",
      "IS_NEW": "0",
      "COM_SOON": "0",
      "NEAR_END": "0",
      "SALE_END": "0",
      "IS_FREE": "0",
      "MEMBER_ONLY": "0",
      "ON_SALE": "0",
      "PROGRAM_NAME": "女子流♪",
      "DIRECTORY": "tgs",
      "ON_DELIVER": "1",
      "EVENT_ID": null,
      "EVENT_FLAG": null,
      "TAG": "",
      "SORT": "132",
      "SUB_SORT": null,
      "MEDIA_TYPE_ATTENTION": "",
      "DELIVERY_START_DATE": "2016-08-25 18:00:00",
      "DELIVERY_END_DATE": "",
      "SALES_START_TIME": "2099-01-01 00:00:00",
      "SALES_END_TIME": "",
      "PROGRAM_CODE": "332",
      "IMAGE_URL": "\/images\/episode\/17085\/dc9c9e8fa921ee6d4e918e9aa49fe217.jpg",
      "MAIN_IMAGE_URL": "",
      "IMAGE_URL_PC": "\/images\/episode\/17085\/dc9c9e8fa921ee6d4e918e9aa49fe217.jpg",
      "IMAGE_URL_MB": "",
      "HAS_BOUGHT": 1,
      "LIMIT_DATE": "2019\/06\/30 13:54",
      "EXTRA_LARGE_IMAGE_URL": "\/images\/episode\/17085\/extra_large\/dc9c9e8fa921ee6d4e918e9aa49fe217.jpg",
      "LARGE_IMAGE_URL": "\/images\/episode\/17085\/large\/dc9c9e8fa921ee6d4e918e9aa49fe217.jpg",
      "MEDIUM_IMAGE_URL": "\/images\/episode\/17085\/medium\/dc9c9e8fa921ee6d4e918e9aa49fe217.jpg",
      "SMALL_MEDIUM_IMAGE_URL": "\/images\/episode\/17085\/small_medium\/dc9c9e8fa921ee6d4e918e9aa49fe217.jpg",
      "SMALL_IMAGE_URL": "\/images\/episode\/17085\/small\/dc9c9e8fa921ee6d4e918e9aa49fe217.jpg"
    },
    {
      "EPISODE_ID": "17033",
      "ARTICLE_ID": "16209",
      "EPISODE_NAME": "＃118 新企画『女子流さんぽ』スタート！？＆TGS59『深海』レコーディングに密着",
      "EPISODE_NUM": "131",
      "EPISODE_CODE": "17033",
      "PLAY_TIME": "33",
      "PRICE": "15",
      "VIEW_NOLIMIT": "0",
      "VIEW_TERM": "7",
      "CAPTION": "　東京女子流にごほうび企画！『女子流さんぽ♪』がスタート。戸越銀座商店街で街ブラロケを敢行！！趣味が商店街めぐりというひーちゃんを筆頭に、久しぶりの4人でのロケ企画にハイテンションのメンバーだったが…？実はこれ、メンバーへの完全ドッキリ企画！そうとも知らず、商店街での食べ歩きを楽しむ4人だが…一体、何が起こるのか！？\n　東京女子流20thシングル『深海』レコーディング風景に密着！今回は音楽プロデューサーの与田さん・坂田さんにレコーディング～楽曲が仕上がるまでの制作過程をじっくりインタビュー。プロデューサーの役割とは？歌割りはどうやって決める？女子流1人1人の声の特徴とは？などなど、なかなか聞けない楽曲制作の裏話は必見！そして、順調にレコーディングを進めていく女子流だったが…友梨にまさかのハプニングが？",
      "IS_NEW": "0",
      "COM_SOON": "0",
      "NEAR_END": "0",
      "SALE_END": "0",
      "IS_FREE": "0",
      "MEMBER_ONLY": "0",
      "ON_SALE": "0",
      "PROGRAM_NAME": "女子流♪",
      "DIRECTORY": "tgs",
      "ON_DELIVER": "1",
      "EVENT_ID": null,
      "EVENT_FLAG": null,
      "TAG": "",
      "SORT": "131",
      "SUB_SORT": null,
      "MEDIA_TYPE_ATTENTION": "",
      "DELIVERY_START_DATE": "2016-08-11 18:00:00",
      "DELIVERY_END_DATE": "",
      "SALES_START_TIME": "2099-01-01 00:00:00",
      "SALES_END_TIME": "",
      "PROGRAM_CODE": "332",
      "IMAGE_URL": "\/images\/episode\/17033\/4e2be1357ea6474d0f26c347cc1e1c87.jpg",
      "MAIN_IMAGE_URL": "",
      "IMAGE_URL_PC": "\/images\/episode\/17033\/4e2be1357ea6474d0f26c347cc1e1c87.jpg",
      "IMAGE_URL_MB": "",
      "HAS_BOUGHT": 1,
      "LIMIT_DATE": "2019\/06\/30 13:54",
      "EXTRA_LARGE_IMAGE_URL": "\/images\/episode\/17033\/extra_large\/4e2be1357ea6474d0f26c347cc1e1c87.jpg",
      "LARGE_IMAGE_URL": "\/images\/episode\/17033\/large\/4e2be1357ea6474d0f26c347cc1e1c87.jpg",
      "MEDIUM_IMAGE_URL": "\/images\/episode\/17033\/medium\/4e2be1357ea6474d0f26c347cc1e1c87.jpg",
      "SMALL_MEDIUM_IMAGE_URL": "\/images\/episode\/17033\/small_medium\/4e2be1357ea6474d0f26c347cc1e1c87.jpg",
      "SMALL_IMAGE_URL": "\/images\/episode\/17033\/small\/4e2be1357ea6474d0f26c347cc1e1c87.jpg"
    }
  ]
}