{
  "code": 200,
  "message": "success",
  "timestamp": "2019-06-28 14:01:39",
  "request": {
    "key": "332",
    "limit": "12",
    "page": "2",
    "sort": "104",
    "bought": "1"
  },
  "info": {
    "count": 12,
    "total": 35,
    "next_offset": 12,
    "now_page": 2,
    "max_page": 3,
    "next_page": 3
  },
  "copyright": "(C)テレビ朝日",
  "data": [
    {
      "EPISODE_ID": "16940",
      "ARTICLE_ID": "16115",
      "EPISODE_NAME": "＃117 女子流会議“ファンクラブ限定ライブ”密着SP！＆マナー講座完結！ひーちゃんがお作法ダンス披露！？",
      "EPISODE_NUM": "130",
      "EPISODE_CODE": "16940",
      "PLAY_TIME": "31",
      "PRICE": "15",
      "VIEW_NOLIMIT": "0",
      "VIEW_TERM": "7",
      "CAPTION": "　東京女子流が4人だけの空間で、本音で“これから”を語り合う『女子流会議』。今回はライブSP！7\/3に行われた女子流初のファンクラブ会員限定ライブ『TGS LIVE 2016 -Astalight*-』の密着映像と合わせて、“ライブについて”4人の本音トークをお届け。「ライブでの改善点」「最近見たライブで女子流に取り入れたいこと」「アスタライトは東京女子流のどこが好きなのか？」などなど…4人がマジメに徹底討論。女子流がライブでアスタライトに見てほしいところは…？4人が出した結論とは。\n　大人になるための様々なマナーを学ぶ『女子流マナー講座』はついに完結！最後に学ぶのは「冠婚葬祭マナー」。ご祝儀袋の渡し方に挑戦するが…はじめての経験に戸惑うメンバー。無事、有終の美を飾れるか？そして、マナー講座を終えたひーちゃんが収録後にお作法ダンスを披露！",
      "IS_NEW": "0",
      "COM_SOON": "0",
      "NEAR_END": "0",
      "SALE_END": "0",
      "IS_FREE": "0",
      "MEMBER_ONLY": "0",
      "ON_SALE": "0",
      "PROGRAM_NAME": "女子流♪",
      "DIRECTORY": "tgs",
      "ON_DELIVER": "1",
      "EVENT_ID": null,
      "EVENT_FLAG": null,
      "TAG": "",
      "SORT": "130",
      "SUB_SORT": null,
      "MEDIA_TYPE_ATTENTION": "",
      "DELIVERY_START_DATE": "2016-07-28 18:00:00",
      "DELIVERY_END_DATE": "",
      "SALES_START_TIME": "2099-01-01 00:00:00",
      "SALES_END_TIME": "",
      "PROGRAM_CODE": "332",
      "IMAGE_URL": "\/images\/episode\/16940\/e98edec48a9cd7ec4acf89b951b5381c.jpg",
      "MAIN_IMAGE_URL": "",
      "IMAGE_URL_PC": "\/images\/episode\/16940\/e98edec48a9cd7ec4acf89b951b5381c.jpg",
      "IMAGE_URL_MB": "",
      "HAS_BOUGHT": 1,
      "LIMIT_DATE": "2019\/06\/30 14:01",
      "EXTRA_LARGE_IMAGE_URL": "\/images\/episode\/16940\/extra_large\/e98edec48a9cd7ec4acf89b951b5381c.jpg",
      "LARGE_IMAGE_URL": "\/images\/episode\/16940\/large\/e98edec48a9cd7ec4acf89b951b5381c.jpg",
      "MEDIUM_IMAGE_URL": "\/images\/episode\/16940\/medium\/e98edec48a9cd7ec4acf89b951b5381c.jpg",
      "SMALL_MEDIUM_IMAGE_URL": "\/images\/episode\/16940\/small_medium\/e98edec48a9cd7ec4acf89b951b5381c.jpg",
      "SMALL_IMAGE_URL": "\/images\/episode\/16940\/small\/e98edec48a9cd7ec4acf89b951b5381c.jpg"
    },
    {
      "EPISODE_ID": "16872",
      "ARTICLE_ID": "16044",
      "EPISODE_NAME": "＃116 祝！20歳！未夢バースデーイベントに密着＆冠婚葬祭マナーで珍解答連発",
      "EPISODE_NUM": "129",
      "EPISODE_CODE": "16872",
      "PLAY_TIME": "31",
      "PRICE": "15",
      "VIEW_NOLIMIT": "0",
      "VIEW_TERM": "7",
      "CAPTION": "　6\/24に20歳の誕生日を迎えた未夢の「山邊未夢20歳記念パーティファンクラブイベント」夜の部に密着！この日、大人っぽいドレスに身を包み登場した未夢が、たくさんの思い出写真と共に20年の人生を振り返りトーク！自他共に認める(？)未夢が人生で一番可愛かった時とは？秘蔵写真をたっぷり公開！メンバーから愛のこもったビデオメッセージも。しかし未夢がメンバーに反論？ひーちゃんの●●なところを暴露！？\n　さらに、誕生日の日どう過ごした？0時になった瞬間電話をくれた人物とは？など、ハタチを迎えた未夢にたっぷりインタビュー。未夢が20年間で一番つらかったこととは…？\n　“大人になる為の様々なマナー”を学ぶ「女子流マナー講座」では、冠婚葬祭マナーに挑戦。返信ハガキの書き方や、ご祝儀について学ぶが…初めて見る単語にめいちゃんがパニックに！？",
      "IS_NEW": "0",
      "COM_SOON": "0",
      "NEAR_END": "0",
      "SALE_END": "0",
      "IS_FREE": "0",
      "MEMBER_ONLY": "0",
      "ON_SALE": "0",
      "PROGRAM_NAME": "女子流♪",
      "DIRECTORY": "tgs",
      "ON_DELIVER": "1",
      "EVENT_ID": null,
      "EVENT_FLAG": null,
      "TAG": "",
      "SORT": "129",
      "SUB_SORT": null,
      "MEDIA_TYPE_ATTENTION": "",
      "DELIVERY_START_DATE": "2016-07-14 18:00:00",
      "DELIVERY_END_DATE": "",
      "SALES_START_TIME": "2099-01-01 00:00:00",
      "SALES_END_TIME": "",
      "PROGRAM_CODE": "332",
      "IMAGE_URL": "\/images\/episode\/16872\/74562a51ccacd67f6d585da3184c9f91.jpg",
      "MAIN_IMAGE_URL": "",
      "IMAGE_URL_PC": "\/images\/episode\/16872\/74562a51ccacd67f6d585da3184c9f91.jpg",
      "IMAGE_URL_MB": "",
      "HAS_BOUGHT": 1,
      "LIMIT_DATE": "2019\/06\/30 14:01",
      "EXTRA_LARGE_IMAGE_URL": "\/images\/episode\/16872\/extra_large\/74562a51ccacd67f6d585da3184c9f91.jpg",
      "LARGE_IMAGE_URL": "\/images\/episode\/16872\/large\/74562a51ccacd67f6d585da3184c9f91.jpg",
      "MEDIUM_IMAGE_URL": "\/images\/episode\/16872\/medium\/74562a51ccacd67f6d585da3184c9f91.jpg",
      "SMALL_MEDIUM_IMAGE_URL": "\/images\/episode\/16872\/small_medium\/74562a51ccacd67f6d585da3184c9f91.jpg",
      "SMALL_IMAGE_URL": "\/images\/episode\/16872\/small\/74562a51ccacd67f6d585da3184c9f91.jpg"
    },
    {
      "EPISODE_ID": "16657",
      "ARTICLE_ID": "15832",
      "EPISODE_NAME": "＃115 「上海女子流」現地密着レポート＆お茶出しマナーに大苦戦！",
      "EPISODE_NUM": "128",
      "EPISODE_CODE": "16657",
      "PLAY_TIME": "28",
      "PRICE": "15",
      "VIEW_NOLIMIT": "0",
      "VIEW_TERM": "7",
      "CAPTION": "　6\/4『＠JAM in上海 2016』、6\/5『JCIS 上海 2016』出演で2度目の上海上陸を果たした東京女子流。2日間に渡る現地の様子を、オフショット満載の自撮りレポート！『＠JAM in上海 2016』ではトリを務めた女子流。「前回よりコミュニケーションがとれた！」とひーちゃんが笑顔で語った、現地の言葉を練習して挑んだMCは必見。\n　もちろん今回もひーちゃんの食レポも！上海で食事を自撮りレポート。食事を楽しむメンバーの様子や、現地の料理をひーちゃんがゆるーく紹介。女子流が上海で夢中になったメニューとは？さらに「海外だからこそ着れた」という、日本じゃ見れない私服も公開！\n　大人になるための様々なマナーを学ぶ『女子流マナー講座』では来客時のお茶出しマナーに挑戦。アルコ&ピース平子が待つ応接室へお茶を届けるが…クレーマー平子のアドリブに、またもメンバーがパニックに！？",
      "IS_NEW": "0",
      "COM_SOON": "0",
      "NEAR_END": "0",
      "SALE_END": "0",
      "IS_FREE": "0",
      "MEMBER_ONLY": "0",
      "ON_SALE": "0",
      "PROGRAM_NAME": "女子流♪",
      "DIRECTORY": "tgs",
      "ON_DELIVER": "1",
      "EVENT_ID": null,
      "EVENT_FLAG": null,
      "TAG": "",
      "SORT": "128",
      "SUB_SORT": null,
      "MEDIA_TYPE_ATTENTION": "",
      "DELIVERY_START_DATE": "2016-06-30 18:00:00",
      "DELIVERY_END_DATE": "",
      "SALES_START_TIME": "2099-01-01 00:00:00",
      "SALES_END_TIME": "",
      "PROGRAM_CODE": "332",
      "IMAGE_URL": "\/images\/episode\/16657\/941d5238461206004fe6aadd8b0d3991.jpg",
      "MAIN_IMAGE_URL": "",
      "IMAGE_URL_PC": "\/images\/episode\/16657\/941d5238461206004fe6aadd8b0d3991.jpg",
      "IMAGE_URL_MB": "",
      "HAS_BOUGHT": 1,
      "LIMIT_DATE": "2019\/06\/30 14:01",
      "EXTRA_LARGE_IMAGE_URL": "\/images\/episode\/16657\/extra_large\/941d5238461206004fe6aadd8b0d3991.jpg",
      "LARGE_IMAGE_URL": "\/images\/episode\/16657\/large\/941d5238461206004fe6aadd8b0d3991.jpg",
      "MEDIUM_IMAGE_URL": "\/images\/episode\/16657\/medium\/941d5238461206004fe6aadd8b0d3991.jpg",
      "SMALL_MEDIUM_IMAGE_URL": "\/images\/episode\/16657\/small_medium\/941d5238461206004fe6aadd8b0d3991.jpg",
      "SMALL_IMAGE_URL": "\/images\/episode\/16657\/small\/941d5238461206004fe6aadd8b0d3991.jpg"
    },
    {
      "EPISODE_ID": "16483",
      "ARTICLE_ID": "15656",
      "EPISODE_NAME": "＃114 ひーちゃんがアドリブでクレームと戦う！＆「女子流会議」メンバーの改善点を語る",
      "EPISODE_NUM": "127",
      "EPISODE_CODE": "16483",
      "PLAY_TIME": "28",
      "PRICE": "15",
      "VIEW_NOLIMIT": "0",
      "VIEW_TERM": "7",
      "CAPTION": "　大人になるための様々なマナーを学ぶ『女子流マナー講座』。電話対応マナーに続き、今度は会社の受付に挑戦。アルコ＆ピース平子のクレーム対応に挑むが…めいちゃんは開始3秒で先生にダメ出しされ、思わずボー然。そして、相変わらずひーちゃんに厳しい平子だが…ひーちゃんがまさかのアドリブで応戦！？思わぬ展開に、先生も感動？\n　東京女子流が4人だけの空間で、本音で“これから”を語り合う『女子流会議』。“正直、メンバーで誰が1番カワイイ？”“メンバーのここを直してほしい”など、今回も4人のぶっちゃけトークが飛び出す！未夢が語る、めいちゃんの欠点とは？そして、友梨が「うちら仲良くないのかな？って思っちゃう」と指摘した、メンバー全員に思う改善点とは。さらに、今月20歳の誕生日を迎える未夢が“20歳になるまでにやりたいこと”を語る！",
      "IS_NEW": "0",
      "COM_SOON": "0",
      "NEAR_END": "0",
      "SALE_END": "0",
      "IS_FREE": "0",
      "MEMBER_ONLY": "0",
      "ON_SALE": "0",
      "PROGRAM_NAME": "女子流♪",
      "DIRECTORY": "tgs",
      "ON_DELIVER": "1",
      "EVENT_ID": null,
      "EVENT_FLAG": null,
      "TAG": "",
      "SORT": "127",
      "SUB_SORT": null,
      "MEDIA_TYPE_ATTENTION": "",
      "DELIVERY_START_DATE": "2016-06-16 18:00:00",
      "DELIVERY_END_DATE": "",
      "SALES_START_TIME": "2099-01-01 00:00:00",
      "SALES_END_TIME": "",
      "PROGRAM_CODE": "332",
      "IMAGE_URL": "\/images\/episode\/16483\/578e4507bb19d2a80055e2c1f81a3609.jpg",
      "MAIN_IMAGE_URL": "",
      "IMAGE_URL_PC": "\/images\/episode\/16483\/578e4507bb19d2a80055e2c1f81a3609.jpg",
      "IMAGE_URL_MB": "",
      "HAS_BOUGHT": 1,
      "LIMIT_DATE": "2019\/06\/30 14:01",
      "EXTRA_LARGE_IMAGE_URL": "\/images\/episode\/16483\/extra_large\/578e4507bb19d2a80055e2c1f81a3609.jpg",
      "LARGE_IMAGE_URL": "\/images\/episode\/16483\/large\/578e4507bb19d2a80055e2c1f81a3609.jpg",
      "MEDIUM_IMAGE_URL": "\/images\/episode\/16483\/medium\/578e4507bb19d2a80055e2c1f81a3609.jpg",
      "SMALL_MEDIUM_IMAGE_URL": "\/images\/episode\/16483\/small_medium\/578e4507bb19d2a80055e2c1f81a3609.jpg",
      "SMALL_IMAGE_URL": "\/images\/episode\/16483\/small\/578e4507bb19d2a80055e2c1f81a3609.jpg"
    },
    {
      "EPISODE_ID": "16419",
      "ARTICLE_ID": "15597",
      "EPISODE_NAME": "＃113 オフショット満載！タイ・香港・台湾LIVEレポート＆電話対応マナーでひーちゃん涙！",
      "EPISODE_NUM": "126",
      "EPISODE_CODE": "16419",
      "PLAY_TIME": "26",
      "PRICE": "15",
      "VIEW_NOLIMIT": "0",
      "VIEW_TERM": "7",
      "CAPTION": "　この春、東京女子流が訪れたタイ・香港・台湾、各地のLIVEをレポート。LIVEはもちろん、食事や買い物から移動車の様子、メンバーによる自撮りレポートも！4月に行われた「Thailand Comic Con 2016」では、女子流3度目となるタイ・バンコクのステージへ。世界中のゲーム、アニメ、漫画作品が集まるこのイベントでは、各ブースでゲームを楽しむ姿も♪本番前のノリノリなひーちゃんの様子をめいちゃんがレポート！\n　さらに、5\/14・15と2日連続で行われた台北＆香港でのワンマンLIVE！初めての海外ワンマンに「女子流を見るためだけに来てくれる現地の方に、満足いくものを見せたい」と友梨はリハーサルから気合十分。LIVEでは『Partition Love』を台湾ver.で披露。リハでは慣れない言語に苦戦していたが…。堂々と歌いあげた、大熱狂のステージは必見！\n　大人になるための様々なマナーを学ぶ『女子流マナー講座』。社会人なら必須の“電話対応のマナー”に挑戦。アルコ＆ピース平子からのクレーム対応に挑むが…またも先生からキツいダメ出しの嵐！「話にならない」と電話を切られてしまうメンバーも…。そしてひーちゃんの目に涙！いったい何が！？",
      "IS_NEW": "0",
      "COM_SOON": "0",
      "NEAR_END": "0",
      "SALE_END": "0",
      "IS_FREE": "0",
      "MEMBER_ONLY": "0",
      "ON_SALE": "0",
      "PROGRAM_NAME": "女子流♪",
      "DIRECTORY": "tgs",
      "ON_DELIVER": "1",
      "EVENT_ID": null,
      "EVENT_FLAG": null,
      "TAG": "",
      "SORT": "126",
      "SUB_SORT": null,
      "MEDIA_TYPE_ATTENTION": "",
      "DELIVERY_START_DATE": "2016-06-02 18:00:00",
      "DELIVERY_END_DATE": "",
      "SALES_START_TIME": "2099-01-01 00:00:00",
      "SALES_END_TIME": "",
      "PROGRAM_CODE": "332",
      "IMAGE_URL": "\/images\/episode\/16419\/a4c70f1f2fd2655f17798c4738c3a499.jpg",
      "MAIN_IMAGE_URL": "",
      "IMAGE_URL_PC": "\/images\/episode\/16419\/a4c70f1f2fd2655f17798c4738c3a499.jpg",
      "IMAGE_URL_MB": "",
      "HAS_BOUGHT": 1,
      "LIMIT_DATE": "2019\/06\/30 14:01",
      "EXTRA_LARGE_IMAGE_URL": "\/images\/episode\/16419\/extra_large\/a4c70f1f2fd2655f17798c4738c3a499.jpg",
      "LARGE_IMAGE_URL": "\/images\/episode\/16419\/large\/a4c70f1f2fd2655f17798c4738c3a499.jpg",
      "MEDIUM_IMAGE_URL": "\/images\/episode\/16419\/medium\/a4c70f1f2fd2655f17798c4738c3a499.jpg",
      "SMALL_MEDIUM_IMAGE_URL": "\/images\/episode\/16419\/small_medium\/a4c70f1f2fd2655f17798c4738c3a499.jpg",
      "SMALL_IMAGE_URL": "\/images\/episode\/16419\/small\/a4c70f1f2fd2655f17798c4738c3a499.jpg"
    },
    {
      "EPISODE_ID": "16334",
      "ARTICLE_ID": "15531",
      "EPISODE_NAME": "＃112 志田サマー新井サマーMVメイキング第2弾！＆未夢・芽生が「未来の恋人へ」フルーツプレート作り",
      "EPISODE_NUM": "125",
      "EPISODE_CODE": "16334",
      "PLAY_TIME": "26",
      "PRICE": "15",
      "VIEW_NOLIMIT": "0",
      "VIEW_TERM": "7",
      "CAPTION": "　夏限定ユニット「志田サマー新井サマー」MVメイキング第2弾！「とにかく海がめっちゃキレイ！」とひーちゃんも大興奮のパタヤの海で、2人が走る！飛ぶ！叫ぶ！！今回も志田サマーと新井サマーの仲良しショット盛りだくさんでお届け♪クレーンカメラに乗っての撮影では「アトラクションに乗ってるみたいだった」と大興奮！ハンモックに揺られ、うとうとするひーちゃんの姿も…。仲良し2人の、超ハイテンションな撮影風景は必見！\n　未夢ソロ企画「オトナLesson」はフルーツデコレーション後篇。苦戦しながらも、なんとか薔薇のカッティングを習得した未夢＆めいちゃん。2人に課せられた最終オトナ課題は「未来の恋人に食べさせてあげたいLoveLoveフルーツプレート」。めいちゃんの作品テーマは“ちょっと落ち着いた愛”！？一方、未夢が目指すのは「ピカソ的」なフルーツプレート！？「私にもこんな事が出来る日が来るなんて」と思わずため息を漏らした、2人が作り上げた作品とは？",
      "IS_NEW": "0",
      "COM_SOON": "0",
      "NEAR_END": "0",
      "SALE_END": "0",
      "IS_FREE": "0",
      "MEMBER_ONLY": "0",
      "ON_SALE": "0",
      "PROGRAM_NAME": "女子流♪",
      "DIRECTORY": "tgs",
      "ON_DELIVER": "1",
      "EVENT_ID": null,
      "EVENT_FLAG": null,
      "TAG": "",
      "SORT": "125",
      "SUB_SORT": null,
      "MEDIA_TYPE_ATTENTION": "",
      "DELIVERY_START_DATE": "2016-05-26 18:00:00",
      "DELIVERY_END_DATE": "",
      "SALES_START_TIME": "2099-01-01 00:00:00",
      "SALES_END_TIME": "",
      "PROGRAM_CODE": "332",
      "IMAGE_URL": "\/images\/episode\/16334\/258f2aa8d2d4c96c7e1a70076b4e0130.jpg",
      "MAIN_IMAGE_URL": "",
      "IMAGE_URL_PC": "\/images\/episode\/16334\/258f2aa8d2d4c96c7e1a70076b4e0130.jpg",
      "IMAGE_URL_MB": "",
      "HAS_BOUGHT": 1,
      "LIMIT_DATE": "2019\/06\/30 14:01",
      "EXTRA_LARGE_IMAGE_URL": "\/images\/episode\/16334\/extra_large\/258f2aa8d2d4c96c7e1a70076b4e0130.jpg",
      "LARGE_IMAGE_URL": "\/images\/episode\/16334\/large\/258f2aa8d2d4c96c7e1a70076b4e0130.jpg",
      "MEDIUM_IMAGE_URL": "\/images\/episode\/16334\/medium\/258f2aa8d2d4c96c7e1a70076b4e0130.jpg",
      "SMALL_MEDIUM_IMAGE_URL": "\/images\/episode\/16334\/small_medium\/258f2aa8d2d4c96c7e1a70076b4e0130.jpg",
      "SMALL_IMAGE_URL": "\/images\/episode\/16334\/small\/258f2aa8d2d4c96c7e1a70076b4e0130.jpg"
    },
    {
      "EPISODE_ID": "16232",
      "ARTICLE_ID": "15434",
      "EPISODE_NAME": "＃111 夏限定ユニット「志田サマー新井サマー」MV撮影密着！＆未夢ソロ企画 フルーツデコレーションに挑戦",
      "EPISODE_NUM": "124",
      "EPISODE_CODE": "16232",
      "PLAY_TIME": "26",
      "PRICE": "15",
      "VIEW_NOLIMIT": "0",
      "VIEW_TERM": "7",
      "CAPTION": "　ひーちゃんと夢みるアドレセンスの志田友美ちゃんが、この夏限定ユニット「志田サマー新井サマー」を結成！7月に発売するシングル「灼熱サマー ～SUMMER KING × SUMMER QUEEN～」MV撮影の密着レポートをお届け。撮影が行われたのはタイ・パタヤの海。青空の下、終始ハイテンションの友美ちゃんの影響で？ひーちゃんもテンション全開！2ショット撮影ではブランコを漕いだり海辺ではしゃいだり…カンカン照りのタイの太陽の下、ノリノリで撮影に挑む仲良し2人の姿は必見です！合間に寝てしまったひーちゃんの寝顔＆寝起きショットも…。衣装！楽曲！ロケーション！全てが夏全開のユニット「志田サマー新井サマー」が、少し早い“夏”をお届けします。\n　そして久々の未夢ソロ企画『山邊未夢のオトナLESSON』！今回はオトナ女子の間で話題だという“フルーツデコレーション”に挑戦！またまた付き添いで来てくれためいちゃんと共に、まずはフルーツカットに挑戦。しかし、以前ニンジンの皮むきで指を切ったトラウマがあるという未夢は、包丁を使うことに不安顔…。開始早々苦戦する未夢＆めいちゃんだが…慣れない作業で、果たして女子力を見せられるか？",
      "IS_NEW": "0",
      "COM_SOON": "0",
      "NEAR_END": "0",
      "SALE_END": "0",
      "IS_FREE": "0",
      "MEMBER_ONLY": "0",
      "ON_SALE": "0",
      "PROGRAM_NAME": "女子流♪",
      "DIRECTORY": "tgs",
      "ON_DELIVER": "1",
      "EVENT_ID": null,
      "EVENT_FLAG": null,
      "TAG": "",
      "SORT": "124",
      "SUB_SORT": null,
      "MEDIA_TYPE_ATTENTION": "",
      "DELIVERY_START_DATE": "2016-05-19 18:00:00",
      "DELIVERY_END_DATE": "",
      "SALES_START_TIME": "2099-01-01 00:00:00",
      "SALES_END_TIME": "",
      "PROGRAM_CODE": "332",
      "IMAGE_URL": "\/images\/episode\/16232\/67a51df071b35adf4ed4fc7707e99e17.jpg",
      "MAIN_IMAGE_URL": "",
      "IMAGE_URL_PC": "\/images\/episode\/16232\/67a51df071b35adf4ed4fc7707e99e17.jpg",
      "IMAGE_URL_MB": "",
      "HAS_BOUGHT": 1,
      "LIMIT_DATE": "2019\/06\/30 14:01",
      "EXTRA_LARGE_IMAGE_URL": "\/images\/episode\/16232\/extra_large\/67a51df071b35adf4ed4fc7707e99e17.jpg",
      "LARGE_IMAGE_URL": "\/images\/episode\/16232\/large\/67a51df071b35adf4ed4fc7707e99e17.jpg",
      "MEDIUM_IMAGE_URL": "\/images\/episode\/16232\/medium\/67a51df071b35adf4ed4fc7707e99e17.jpg",
      "SMALL_MEDIUM_IMAGE_URL": "\/images\/episode\/16232\/small_medium\/67a51df071b35adf4ed4fc7707e99e17.jpg",
      "SMALL_IMAGE_URL": "\/images\/episode\/16232\/small\/67a51df071b35adf4ed4fc7707e99e17.jpg"
    },
    {
      "EPISODE_ID": "16127",
      "ARTICLE_ID": "15329",
      "EPISODE_NAME": "＃110 『女子流会議』4人だけのぶっちゃけトーク＆マナー講座 お宅訪問で絶叫！？",
      "EPISODE_NUM": "123",
      "EPISODE_CODE": "16127",
      "PLAY_TIME": "26",
      "PRICE": "15",
      "VIEW_NOLIMIT": "0",
      "VIEW_TERM": "7",
      "CAPTION": "　4人が4人だけの空間で、本音で、“これから”を語り合う『女子流会議』スペシャル！\n今年6年目を迎える東京女子流が一緒にいるからこそできる、普段メンバーに感じていることをぶっちゃけトーク！盛り上がるトークはさらに、楽曲の話題へ。最新アルバム『REFLECTION』にメインアレンジャーとして参加した中村祐介さん、これまで女子流のサウンドを支えてきた松井寛さん。2人それぞれの全く違う音楽を表現してどう感じているのか素直な気持ちを語る。他にも、最近一人暮らしを始めためいちゃん＆友梨の生活の変化や、フリーライブへ懸ける思いなど4人だけだからこそ出来る話題盛りだくさん。\n　大人へのマナーを学ぶ『女子流マナー講座』は、前回に続き“お宅を訪問してから手土産を渡すまで”をシミュレーション。前回は玄関にすら上がれなかったが…。今度こそ無事手土産を渡すところまで辿りつけるか？今回も厳しい先生のチェックにめいちゃんが絶叫！",
      "IS_NEW": "0",
      "COM_SOON": "0",
      "NEAR_END": "0",
      "SALE_END": "0",
      "IS_FREE": "0",
      "MEMBER_ONLY": "0",
      "ON_SALE": "0",
      "PROGRAM_NAME": "女子流♪",
      "DIRECTORY": "tgs",
      "ON_DELIVER": "1",
      "EVENT_ID": null,
      "EVENT_FLAG": null,
      "TAG": "",
      "SORT": "123",
      "SUB_SORT": null,
      "MEDIA_TYPE_ATTENTION": "",
      "DELIVERY_START_DATE": "2016-05-12 18:00:00",
      "DELIVERY_END_DATE": "",
      "SALES_START_TIME": "2099-01-01 00:00:00",
      "SALES_END_TIME": "",
      "PROGRAM_CODE": "332",
      "IMAGE_URL": "\/images\/episode\/16127\/a24b3589a64129c521e536bde5a34d80.jpg",
      "MAIN_IMAGE_URL": "",
      "IMAGE_URL_PC": "\/images\/episode\/16127\/a24b3589a64129c521e536bde5a34d80.jpg",
      "IMAGE_URL_MB": "",
      "HAS_BOUGHT": 1,
      "LIMIT_DATE": "2019\/06\/30 14:01",
      "EXTRA_LARGE_IMAGE_URL": "\/images\/episode\/16127\/extra_large\/a24b3589a64129c521e536bde5a34d80.jpg",
      "LARGE_IMAGE_URL": "\/images\/episode\/16127\/large\/a24b3589a64129c521e536bde5a34d80.jpg",
      "MEDIUM_IMAGE_URL": "\/images\/episode\/16127\/medium\/a24b3589a64129c521e536bde5a34d80.jpg",
      "SMALL_MEDIUM_IMAGE_URL": "\/images\/episode\/16127\/small_medium\/a24b3589a64129c521e536bde5a34d80.jpg",
      "SMALL_IMAGE_URL": "\/images\/episode\/16127\/small\/a24b3589a64129c521e536bde5a34d80.jpg"
    },
    {
      "EPISODE_ID": "16077",
      "ARTICLE_ID": "15277",
      "EPISODE_NAME": "＃109 女子流×夢アド 対バンライブ密着！＆真面目にこれからを語る「女子流会議」",
      "EPISODE_NUM": "122",
      "EPISODE_CODE": "16077",
      "PLAY_TIME": "28",
      "PRICE": "15",
      "VIEW_NOLIMIT": "0",
      "VIEW_TERM": "7",
      "CAPTION": "　3\/29に行われた、夢みるアドレセンスとの対バンライブ『夢アド春の3番勝負』密着。メンバーにとって「刺激になった！」充実のライブの様子をお届け！目玉は夢アド×女子流のコラボ企画。「ゆうやけハナビ」で、めいちゃんと夢アド小林れいちゃんが入れ替わってのパフォーマンスを披露！完璧に女子流に溶け込むれいちゃんを舞台袖から見守るめいちゃんは何を思う？バックステージの裏話を大公開！\n　ひーちゃん＆志田友美ちゃんはオリジナル曲「あんなに好きだったサマー」を披露！“すごく好き”“声質が合ってる”など、メンバーもべた褒めだった2人のコラボが生まれた経緯とは？2人が互いの印象を語る。友美ちゃんから見るひーちゃんはなんと「奇跡の女子」！？その理由とは？\n　そして、4人が本音で語り合う新企画スタート。今年結成6年目を迎えた女子流が“これから”を真面目に語り合う『女子流会議』。4人は“今の東京女子流”をどう考えているのか？目標は？「失敗はしたくない」「どの瞬間も、4人が同じ気持でステージに立ちたい」など、飛び出す熱い本音トークは必見。\n　大人へのマナーを学ぶ「女子流マナー講座」は、お宅訪問のマナー・実践編。“お宅訪問から手土産を渡すまで”を一人ずつシミュレーションしてみるも…先生の厳しすぎるチェックで、玄関に上がることすら許されない！？アルコ＆ピースのアドリブでひーちゃんがピンチ！",
      "IS_NEW": "0",
      "COM_SOON": "0",
      "NEAR_END": "0",
      "SALE_END": "0",
      "IS_FREE": "0",
      "MEMBER_ONLY": "0",
      "ON_SALE": "0",
      "PROGRAM_NAME": "女子流♪",
      "DIRECTORY": "tgs",
      "ON_DELIVER": "1",
      "EVENT_ID": null,
      "EVENT_FLAG": null,
      "TAG": "",
      "SORT": "122",
      "SUB_SORT": null,
      "MEDIA_TYPE_ATTENTION": "",
      "DELIVERY_START_DATE": "2016-05-05 18:00:00",
      "DELIVERY_END_DATE": "",
      "SALES_START_TIME": "2099-01-01 00:00:00",
      "SALES_END_TIME": "",
      "PROGRAM_CODE": "332",
      "IMAGE_URL": "\/images\/episode\/16077\/02c4aa534c7f81487a930458d9f53368.jpg",
      "MAIN_IMAGE_URL": "",
      "IMAGE_URL_PC": "\/images\/episode\/16077\/02c4aa534c7f81487a930458d9f53368.jpg",
      "IMAGE_URL_MB": "",
      "HAS_BOUGHT": 1,
      "LIMIT_DATE": "2019\/06\/30 14:01",
      "EXTRA_LARGE_IMAGE_URL": "\/images\/episode\/16077\/extra_large\/02c4aa534c7f81487a930458d9f53368.jpg",
      "LARGE_IMAGE_URL": "\/images\/episode\/16077\/large\/02c4aa534c7f81487a930458d9f53368.jpg",
      "MEDIUM_IMAGE_URL": "\/images\/episode\/16077\/medium\/02c4aa534c7f81487a930458d9f53368.jpg",
      "SMALL_MEDIUM_IMAGE_URL": "\/images\/episode\/16077\/small_medium\/02c4aa534c7f81487a930458d9f53368.jpg",
      "SMALL_IMAGE_URL": "\/images\/episode\/16077\/small\/02c4aa534c7f81487a930458d9f53368.jpg"
    },
    {
      "EPISODE_ID": "16006",
      "ARTICLE_ID": "15205",
      "EPISODE_NAME": "＃108 祝！ひーちゃん18歳！GirlsAward＆バースデーパーティに密着！",
      "EPISODE_NUM": "121",
      "EPISODE_CODE": "16006",
      "PLAY_TIME": "26",
      "PRICE": "15",
      "VIEW_NOLIMIT": "0",
      "VIEW_TERM": "7",
      "CAPTION": "　4\/10に18歳の誕生日を迎えたひーちゃん17歳最後の日＆18歳最初の日に密着。4\/9に行われた『GirlsAward 2016 SPRING\/SUMMER』では、モデルとしてランウェイに登場。早朝からのリハーサルにも「楽しみで仕方なかった」と笑顔で臨むひーちゃん。2度目のランウェイを歩く本番前の心境は？「次につなげたい」とポーズを考えて臨んだひーちゃんの堂々たるウォーキングは必見！\n　さらに誕生日当日の4\/10に行われた『新井ひとみバースデーパーティ』に今年も潜入！巨大ハニートーストにハイテンションのひーちゃんが18歳の夢を語る！？サプライズの女子流メンバーからの手紙で、めいちゃんが舞台稽古中の裏話を暴露！未夢の手紙で思わず泣いちゃいそうになる場面も。\n　“大人になる為の様々なマナー”を学ぶ「女子流マナー講座」今回のお題は、お宅訪問に適切な時間帯は？手土産はどんな風に持っていけばいい？など、お宅訪問のマナーをお勉強。初めて風呂敷を使い手土産を包んでみるもやはり悪戦苦闘。めいちゃんがまたもパニックに！",
      "IS_NEW": "0",
      "COM_SOON": "0",
      "NEAR_END": "0",
      "SALE_END": "0",
      "IS_FREE": "0",
      "MEMBER_ONLY": "0",
      "ON_SALE": "0",
      "PROGRAM_NAME": "女子流♪",
      "DIRECTORY": "tgs",
      "ON_DELIVER": "1",
      "EVENT_ID": null,
      "EVENT_FLAG": null,
      "TAG": "",
      "SORT": "121",
      "SUB_SORT": null,
      "MEDIA_TYPE_ATTENTION": "",
      "DELIVERY_START_DATE": "2016-04-28 18:00:00",
      "DELIVERY_END_DATE": "",
      "SALES_START_TIME": "2099-01-01 00:00:00",
      "SALES_END_TIME": "",
      "PROGRAM_CODE": "332",
      "IMAGE_URL": "\/images\/episode\/16006\/c764c9ec60e865e72b19b5ef8565ab03.jpg",
      "MAIN_IMAGE_URL": "",
      "IMAGE_URL_PC": "\/images\/episode\/16006\/c764c9ec60e865e72b19b5ef8565ab03.jpg",
      "IMAGE_URL_MB": "",
      "HAS_BOUGHT": 1,
      "LIMIT_DATE": "2019\/06\/30 14:01",
      "EXTRA_LARGE_IMAGE_URL": "\/images\/episode\/16006\/extra_large\/c764c9ec60e865e72b19b5ef8565ab03.jpg",
      "LARGE_IMAGE_URL": "\/images\/episode\/16006\/large\/c764c9ec60e865e72b19b5ef8565ab03.jpg",
      "MEDIUM_IMAGE_URL": "\/images\/episode\/16006\/medium\/c764c9ec60e865e72b19b5ef8565ab03.jpg",
      "SMALL_MEDIUM_IMAGE_URL": "\/images\/episode\/16006\/small_medium\/c764c9ec60e865e72b19b5ef8565ab03.jpg",
      "SMALL_IMAGE_URL": "\/images\/episode\/16006\/small\/c764c9ec60e865e72b19b5ef8565ab03.jpg"
    },
    {
      "EPISODE_ID": "15953",
      "ARTICLE_ID": "15152",
      "EPISODE_NAME": "＃107 『TGS LIVE 2016』2部密着！未夢作詞の新曲初パフォーマンス！",
      "EPISODE_NUM": "120",
      "EPISODE_CODE": "15953",
      "PLAY_TIME": "26",
      "PRICE": "15",
      "VIEW_NOLIMIT": "0",
      "VIEW_TERM": "7",
      "CAPTION": "　3ヶ月連続ワンマンのファイナル『TGS LIVE 2016 -March-』第2部に密着！「今回の公演が一番盛り上がったと思う」と友梨が語った、大興奮のステージの様子をお届け！「HOT LINE UPS」2部ではめいちゃんをフィーチャーした3曲を披露。メンバーが「芽生といえばどの曲？」と選んだ楽曲に注目！\n　さらに、未夢作詞の新曲「君へ」を初パフォーマンス！片思いや初恋の気持ちを表したという歌詞は、なんとすべて実体験？！作詞秘話をたっぷり語ってくれた未夢へのインタビューと合わせて、パフォーマンスをお楽しみください。かわいさの中に、女子流らしいカッコよさを取り入れたというダンスも必見！\n　東京女子流が大人になるための様々なマナーを学ぶ「女子流マナー講座」では、前回に引き続き\"正しい言葉遣い\"を学ぶが…。マナーに厳しい近藤先生と、バラエティに厳しいアルコ＆ピースを前に相変わらず大苦戦！メンバーのタレントとしてのマナー違反にアルコ＆ピースがキレる！？めいちゃんがパニックに！！",
      "IS_NEW": "0",
      "COM_SOON": "0",
      "NEAR_END": "0",
      "SALE_END": "0",
      "IS_FREE": "0",
      "MEMBER_ONLY": "0",
      "ON_SALE": "0",
      "PROGRAM_NAME": "女子流♪",
      "DIRECTORY": "tgs",
      "ON_DELIVER": "1",
      "EVENT_ID": null,
      "EVENT_FLAG": null,
      "TAG": "",
      "SORT": "120",
      "SUB_SORT": null,
      "MEDIA_TYPE_ATTENTION": "",
      "DELIVERY_START_DATE": "2016-04-21 18:00:00",
      "DELIVERY_END_DATE": "",
      "SALES_START_TIME": "2099-01-01 00:00:00",
      "SALES_END_TIME": "",
      "PROGRAM_CODE": "332",
      "IMAGE_URL": "\/images\/episode\/15953\/e25edc2680b14190d4a210a7f08de9d6.jpg",
      "MAIN_IMAGE_URL": "",
      "IMAGE_URL_PC": "\/images\/episode\/15953\/e25edc2680b14190d4a210a7f08de9d6.jpg",
      "IMAGE_URL_MB": "",
      "HAS_BOUGHT": 1,
      "LIMIT_DATE": "2019\/06\/30 14:01",
      "EXTRA_LARGE_IMAGE_URL": "\/images\/episode\/15953\/extra_large\/e25edc2680b14190d4a210a7f08de9d6.jpg",
      "LARGE_IMAGE_URL": "\/images\/episode\/15953\/large\/e25edc2680b14190d4a210a7f08de9d6.jpg",
      "MEDIUM_IMAGE_URL": "\/images\/episode\/15953\/medium\/e25edc2680b14190d4a210a7f08de9d6.jpg",
      "SMALL_MEDIUM_IMAGE_URL": "\/images\/episode\/15953\/small_medium\/e25edc2680b14190d4a210a7f08de9d6.jpg",
      "SMALL_IMAGE_URL": "\/images\/episode\/15953\/small\/e25edc2680b14190d4a210a7f08de9d6.jpg"
    },
    {
      "EPISODE_ID": "15850",
      "ARTICLE_ID": "15053",
      "EPISODE_NAME": "＃106 『TGS LIVE 2016』3ヶ月の集大成＆大人になるために！女子流マナー講座",
      "EPISODE_NUM": "119",
      "EPISODE_CODE": "15850",
      "PLAY_TIME": "26",
      "PRICE": "15",
      "VIEW_NOLIMIT": "0",
      "VIEW_TERM": "7",
      "CAPTION": "　3\/26に行われた『TGS LIVE 2016 -March-』に密着。ライブから舞台裏、リハーサルまで完全密着！3か月連続で行ってきたワンマンライブの締めくくりになるライブにひーちゃんも「これまでの集大成ライブ」と気合十分。東京女子流が3か月間のライブを通して得たものとは？メンバーが『TGS LIVE 2016』を振り返り成長を語る。\n　「HOT LINE UPS」ではこの春に高校を卒業した友梨をフィーチャーした3曲を披露。なぜこの曲を選んだのか？友梨の「初めて歌いだしをもらった大事な曲」とは。楽曲へのこだわりや熱い思いを語る。ライブで久々に披露した、番組テーマソング「恋愛エチュード」も必見！\n　さらに新企画『女子流マナー講座』がスタート！結成5周年を迎え、徐々に大人への階段を上る東京女子流が“大人になる為の様々なマナー”を学びます。司会のアルコ＆ピースを前に、未夢は「めっちゃグダグダになると思う…」と始まる前から弱気モード！？先生から“正しい言葉づかい”を学ぶが…終始自信なさげなメンバー達。果たして女子流は先生の厳しいレッスンに耐え、大人のマナーを身につけられるか？",
      "IS_NEW": "0",
      "COM_SOON": "0",
      "NEAR_END": "0",
      "SALE_END": "0",
      "IS_FREE": "0",
      "MEMBER_ONLY": "0",
      "ON_SALE": "0",
      "PROGRAM_NAME": "女子流♪",
      "DIRECTORY": "tgs",
      "ON_DELIVER": "1",
      "EVENT_ID": null,
      "EVENT_FLAG": null,
      "TAG": "",
      "SORT": "119",
      "SUB_SORT": null,
      "MEDIA_TYPE_ATTENTION": "",
      "DELIVERY_START_DATE": "2016-04-14 18:00:00",
      "DELIVERY_END_DATE": "",
      "SALES_START_TIME": "2099-01-01 00:00:00",
      "SALES_END_TIME": "",
      "PROGRAM_CODE": "332",
      "IMAGE_URL": "\/images\/episode\/15850\/90b6a192cc1c970cb9c99d55a7f66b49.jpg",
      "MAIN_IMAGE_URL": "",
      "IMAGE_URL_PC": "\/images\/episode\/15850\/90b6a192cc1c970cb9c99d55a7f66b49.jpg",
      "IMAGE_URL_MB": "",
      "HAS_BOUGHT": 1,
      "LIMIT_DATE": "2019\/06\/30 14:01",
      "EXTRA_LARGE_IMAGE_URL": "\/images\/episode\/15850\/extra_large\/90b6a192cc1c970cb9c99d55a7f66b49.jpg",
      "LARGE_IMAGE_URL": "\/images\/episode\/15850\/large\/90b6a192cc1c970cb9c99d55a7f66b49.jpg",
      "MEDIUM_IMAGE_URL": "\/images\/episode\/15850\/medium\/90b6a192cc1c970cb9c99d55a7f66b49.jpg",
      "SMALL_MEDIUM_IMAGE_URL": "\/images\/episode\/15850\/small_medium\/90b6a192cc1c970cb9c99d55a7f66b49.jpg",
      "SMALL_IMAGE_URL": "\/images\/episode\/15850\/small\/90b6a192cc1c970cb9c99d55a7f66b49.jpg"
    }
  ]
}